﻿"LandProvinces"={
	status={
		1=0
		2=0
		3=0
		4=0
		5=0
		6=0
		7=0
		8=0
		9=0
	}
}
"NavalProvinces"={
	status={
		1=0
		2=0
		3=0
		4=0
		5=0
		6=0
		7=0
		8=0
		9=0
	}
}
"none"={
	status={
	}
}
"barony"={
	status={
		b_test_1=0
		b_test_2=0
		b_test_3=0
		b_test_4=0
		b_test_5=0
		b_test_6=0
		b_test_7=0
		b_test_8=0
	}
}
"county"={
	status={
		c_test_1=0
		c_test_2=0
		c_test_3=0
		c_test_4=0
	}
}
"duchy"={
	status={
		d_test_1=0
		d_test_2=0
	}
}
"kingdom"={
	status={
		k_test=0
	}
}
"empire"={
	status={
		e_test=0
	}
}
