game_object_locator={
	name="buildings"
	clamp_to_water_level=yes
	render_under_water=no
	generated_content=no
	layer="building_layer"
	instances={
		{
			id=1
			position={ 2430.000000 0.000000 2840.000000 }
			rotation={ -0.000000 -0.960029 -0.000000 0.279900 }
			scale={ 1.000000 1.000000 1.000000 }
		}
		{
			id=2
			position={ 2445.000000 0.000000 2839.000000 }
			rotation={ -0.000000 -0.962724 -0.000000 0.270487 }
			scale={ 1.000000 1.000000 1.000000 }
		}
		{
			id=3
			position={ 2443.000000 0.000000 2852.000000 }
			rotation={ -0.000000 -0.996900 -0.000000 0.078680 }
			scale={ 1.000000 1.000000 1.000000 }
		}
		{
			id=4
			position={ 2461.000000 0.000000 2848.000000 }
			rotation={ -0.000000 -0.826200 -0.000000 -0.563376 }
			scale={ 1.000000 1.000000 1.000000 }
		}
		{
			id=5
			position={ 2424.000000 0.000000 2831.000000 }
			rotation={ -0.000000 -0.963800 -0.000000 0.266627 }
			scale={ 1.000000 1.000000 1.000000 }
		}
		{
			id=6
			position={ 2410.000000 0.000000 2842.000000 }
			rotation={ -0.000000 -0.759288 -0.000000 0.650755 }
			scale={ 1.000000 1.000000 1.000000 }
		}
		{
			id=7
			position={ 2421.000000 0.000000 2853.000000 }
			rotation={ -0.000000 -0.695041 -0.000000 -0.718970 }
			scale={ 1.000000 1.000000 1.000000 }
		}
		{
			id=8
			position={ 2460.000000 0.000000 2834.000000 }
			rotation={ -0.000000 -0.601278 -0.000000 -0.799040 }
			scale={ 1.000000 1.000000 1.000000 }
		}
		{
			id=9
			position={ 2476.000000 0.000000 2854.000000 }
			rotation={ -0.000000 -0.338905 -0.000000 0.940821 }
			scale={ 1.000000 1.000000 1.000000 }
		}
		{
			id=10
			position={ 2406.000000 0.000000 2865.000000 }
			rotation={ -0.000000 -0.271433 -0.000000 0.962457 }
			scale={ 1.000000 1.000000 1.000000 }
		}
		{
			id=11
			position={ 2391.000000 0.000000 2860.000000 }
			rotation={ -0.000000 -0.889235 -0.000000 0.457450 }
			scale={ 1.000000 1.000000 1.000000 }
		}
		{
			id=12
			position={ 2399.000000 0.000000 2850.000000 }
			rotation={ -0.000000 -0.042530 -0.000000 0.999095 }
			scale={ 1.000000 1.000000 1.000000 }
		}
		{
			id=13
			position={ 2395.000000 0.000000 2880.000000 }
			rotation={ -0.000000 -0.943708 -0.000000 0.330780 }
			scale={ 1.000000 1.000000 1.000000 }
		}
		{
			id=14
			position={ 2388.000000 0.000000 2871.000000 }
			rotation={ -0.000000 -0.246639 -0.000000 -0.969107 }
			scale={ 1.000000 1.000000 1.000000 }
		}
		{
			id=15
			position={ 2379.000000 0.000000 2877.000000 }
			rotation={ -0.000000 -0.751435 -0.000000 0.659807 }
			scale={ 1.000000 1.000000 1.000000 }
		}
		{
			id=16
			position={ 2381.000000 0.000000 2853.000000 }
			rotation={ -0.000000 -0.008268 -0.000000 -0.999966 }
			scale={ 1.000000 1.000000 1.000000 }
		}
		{
			id=17
			position={ 2476.000000 0.000000 2838.000000 }
			rotation={ -0.000000 -0.175313 -0.000000 -0.984513 }
			scale={ 1.000000 1.000000 1.000000 }
		}
		{
			id=18
			position={ 2486.000000 0.000000 2824.000000 }
			rotation={ -0.000000 -0.216567 -0.000000 0.976268 }
			scale={ 1.000000 1.000000 1.000000 }
		}
		{
			id=19
			position={ 2473.000000 0.000000 2823.000000 }
			rotation={ -0.000000 -0.930385 -0.000000 -0.366584 }
			scale={ 1.000000 1.000000 1.000000 }
		}
		{
			id=20
			position={ 2461.000000 0.000000 2864.000000 }
			rotation={ -0.000000 -0.215025 -0.000000 0.976608 }
			scale={ 1.000000 1.000000 1.000000 }
		}
		{
			id=21
			position={ 2487.000000 0.000000 2863.000000 }
			rotation={ -0.000000 -0.235842 -0.000000 0.971791 }
			scale={ 1.000000 1.000000 1.000000 }
		}
		{
			id=22
			position={ 2425.000000 0.000000 2861.000000 }
			rotation={ -0.000000 -0.933035 -0.000000 0.359786 }
			scale={ 1.000000 1.000000 1.000000 }
		}
		{
			id=23
			position={ 2440.000000 0.000000 2863.000000 }
			rotation={ -0.000000 -0.149469 -0.000000 0.988766 }
			scale={ 1.000000 1.000000 1.000000 }
		}
		{
			id=24
			position={ 2499.000000 0.000000 2850.000000 }
			rotation={ -0.000000 -0.851638 -0.000000 0.524130 }
			scale={ 1.000000 1.000000 1.000000 }
		}
		{
			id=25
			position={ 2489.000000 0.000000 2841.000000 }
			rotation={ -0.000000 -0.955055 -0.000000 -0.296429 }
			scale={ 1.000000 1.000000 1.000000 }
		}
		{
			id=26
			position={ 2499.000000 0.000000 2834.000000 }
			rotation={ -0.000000 -0.763981 -0.000000 0.645238 }
			scale={ 1.000000 1.000000 1.000000 }
		}
		{
			id=27
			position={ 2511.000000 0.000000 2830.000000 }
			rotation={ -0.000000 -0.988132 -0.000000 0.153608 }
			scale={ 1.000000 1.000000 1.000000 }
		}
		{
			id=28
			position={ 2486.000000 0.000000 2812.000000 }
			rotation={ -0.000000 -0.858271 -0.000000 -0.513197 }
			scale={ 1.000000 1.000000 1.000000 }
		}
		{
			id=30
			position={ 2369.000000 0.000000 2867.000000 }
			rotation={ -0.000000 -0.773227 -0.000000 0.634130 }
			scale={ 1.000000 1.000000 1.000000 }
		}
		{
			id=31
			position={ 2506.000000 0.000000 2817.000000 }
			rotation={ -0.000000 -0.564998 -0.000000 0.825092 }
			scale={ 1.000000 1.000000 1.000000 }
		}
		{
			id=32
			position={ 2522.000000 0.000000 2805.000000 }
			rotation={ -0.000000 -0.242634 -0.000000 -0.970118 }
			scale={ 1.000000 1.000000 1.000000 }
		}
		{
			id=33
			position={ 2501.000000 0.000000 2805.000000 }
			rotation={ -0.000000 -0.837185 -0.000000 -0.546920 }
			scale={ 1.000000 1.000000 1.000000 }
		}
		{
			id=34
			position={ 2488.000000 0.000000 2800.000000 }
			rotation={ -0.000000 -0.725192 -0.000000 0.688547 }
			scale={ 1.000000 1.000000 1.000000 }
		}
		{
			id=35
			position={ 2476.000000 0.000000 2796.000000 }
			rotation={ -0.000000 -0.397930 -0.000000 -0.917416 }
			scale={ 1.000000 1.000000 1.000000 }
		}
		{
			id=36
			position={ 2484.000000 0.000000 2790.000000 }
			rotation={ -0.000000 -0.497946 -0.000000 0.867208 }
			scale={ 1.000000 1.000000 1.000000 }
		}
		{
			id=37
			position={ 2470.000000 0.000000 2804.000000 }
			rotation={ -0.000000 -0.850995 -0.000000 -0.525175 }
			scale={ 1.000000 1.000000 1.000000 }
		}
		{
			id=38
			position={ 2468.000000 0.000000 2788.000000 }
			rotation={ -0.000000 -0.597641 -0.000000 0.801764 }
			scale={ 1.000000 1.000000 1.000000 }
		}
		{
			id=39
			position={ 2484.000000 0.000000 2781.000000 }
			rotation={ -0.000000 -0.278916 -0.000000 -0.960315 }
			scale={ 1.000000 1.000000 1.000000 }
		}
		{
			id=40
			position={ 2502.000000 0.000000 2785.000000 }
			rotation={ -0.000000 -0.501156 -0.000000 -0.865357 }
			scale={ 1.000000 1.000000 1.000000 }
		}
		{
			id=41
			position={ 2507.000000 0.000000 2797.000000 }
			rotation={ -0.000000 -0.301129 -0.000000 -0.953583 }
			scale={ 1.000000 1.000000 1.000000 }
		}
		{
			id=42
			position={ 2485.000000 0.000000 2772.000000 }
			rotation={ -0.000000 -0.097490 -0.000000 -0.995236 }
			scale={ 1.000000 1.000000 1.000000 }
		}
		{
			id=43
			position={ 2490.000000 0.000000 2756.000000 }
			rotation={ -0.000000 -0.694575 -0.000000 -0.719421 }
			scale={ 1.000000 1.000000 1.000000 }
		}
		{
			id=44
			position={ 2498.000000 0.000000 2770.000000 }
			rotation={ -0.000000 -0.947268 -0.000000 -0.320442 }
			scale={ 1.000000 1.000000 1.000000 }
		}
		{
			id=45
			position={ 2500.000000 0.000000 2750.000000 }
			rotation={ -0.000000 -0.311985 -0.000000 -0.950087 }
			scale={ 1.000000 1.000000 1.000000 }
		}
		{
			id=46
			position={ 2480.000000 0.000000 2757.000000 }
			rotation={ -0.000000 -0.038197 -0.000000 -0.999270 }
			scale={ 1.000000 1.000000 1.000000 }
		}
		{
			id=47
			position={ 2418.000000 0.000000 2798.000000 }
			rotation={ -0.000000 -0.455952 -0.000000 0.890004 }
			scale={ 1.000000 1.000000 1.000000 }
		}
		{
			id=48
			position={ 2425.000000 0.000000 2817.000000 }
			rotation={ -0.000000 -0.912758 -0.000000 0.408501 }
			scale={ 1.000000 1.000000 1.000000 }
		}
		{
			id=49
			position={ 2403.000000 0.000000 2799.000000 }
			rotation={ -0.000000 -0.980737 -0.000000 -0.195331 }
			scale={ 1.000000 1.000000 1.000000 }
		}
		{
			id=50
			position={ 2406.000000 0.000000 2784.000000 }
			rotation={ -0.000000 -0.378915 -0.000000 -0.925431 }
			scale={ 1.000000 1.000000 1.000000 }
		}
		{
			id=51
			position={ 2407.000000 0.000000 2769.000000 }
			rotation={ -0.000000 -0.949659 -0.000000 0.313286 }
			scale={ 1.000000 1.000000 1.000000 }
		}
		{
			id=52
			position={ 2393.000000 0.000000 2777.000000 }
			rotation={ -0.000000 -0.893576 -0.000000 0.448912 }
			scale={ 1.000000 1.000000 1.000000 }
		}
		{
			id=53
			position={ 2422.000000 0.000000 2773.000000 }
			rotation={ -0.000000 -0.816476 -0.000000 -0.577379 }
			scale={ 1.000000 1.000000 1.000000 }
		}
		{
			id=54
			position={ 2440.000000 0.000000 2824.000000 }
			rotation={ -0.000000 -0.868440 -0.000000 -0.495795 }
			scale={ 1.000000 1.000000 1.000000 }
		}
		{
			id=55
			position={ 2455.000000 0.000000 2822.000000 }
			rotation={ -0.000000 -0.964729 -0.000000 0.263244 }
			scale={ 1.000000 1.000000 1.000000 }
		}
		{
			id=56
			position={ 2458.000000 0.000000 2810.000000 }
			rotation={ -0.000000 -0.473960 -0.000000 0.880546 }
			scale={ 1.000000 1.000000 1.000000 }
		}
		{
			id=57
			position={ 2449.000000 0.000000 2797.000000 }
			rotation={ -0.000000 -0.556952 -0.000000 -0.830545 }
			scale={ 1.000000 1.000000 1.000000 }
		}
		{
			id=58
			position={ 2438.000000 0.000000 2807.000000 }
			rotation={ -0.000000 -0.629775 -0.000000 0.776778 }
			scale={ 1.000000 1.000000 1.000000 }
		}
		{
			id=59
			position={ 2427.000000 0.000000 2791.000000 }
			rotation={ -0.000000 -0.903530 -0.000000 0.428524 }
			scale={ 1.000000 1.000000 1.000000 }
		}
		{
			id=60
			position={ 2436.000000 0.000000 2784.000000 }
			rotation={ -0.000000 -0.993952 -0.000000 0.109818 }
			scale={ 1.000000 1.000000 1.000000 }
		}
		{
			id=61
			position={ 2455.000000 0.000000 2781.000000 }
			rotation={ -0.000000 -0.856567 -0.000000 -0.516037 }
			scale={ 1.000000 1.000000 1.000000 }
		}
		{
			id=62
			position={ 2441.000000 0.000000 2771.000000 }
			rotation={ -0.000000 -0.858160 -0.000000 0.513382 }
			scale={ 1.000000 1.000000 1.000000 }
		}
		{
			id=63
			position={ 2469.000000 0.000000 2771.000000 }
			rotation={ -0.000000 -0.928267 -0.000000 -0.371914 }
			scale={ 1.000000 1.000000 1.000000 }
		}
		{
			id=64
			position={ 2364.000000 0.000000 2751.000000 }
			rotation={ -0.000000 -0.999231 -0.000000 -0.039209 }
			scale={ 1.000000 1.000000 1.000000 }
		}
		{
			id=65
			position={ 2385.000000 0.000000 2752.000000 }
			rotation={ -0.000000 -0.986345 -0.000000 0.164694 }
			scale={ 1.000000 1.000000 1.000000 }
		}
		{
			id=66
			position={ 2385.000000 0.000000 2763.000000 }
			rotation={ -0.000000 -0.947994 -0.000000 0.318289 }
			scale={ 1.000000 1.000000 1.000000 }
		}
		{
			id=67
			position={ 2363.000000 0.000000 2768.000000 }
			rotation={ -0.000000 -0.191584 -0.000000 -0.981476 }
			scale={ 1.000000 1.000000 1.000000 }
		}
		{
			id=68
			position={ 2334.000000 0.000000 2786.000000 }
			rotation={ -0.000000 -0.010496 -0.000000 0.999945 }
			scale={ 1.000000 1.000000 1.000000 }
		}
		{
			id=69
			position={ 2336.000000 0.000000 2775.000000 }
			rotation={ -0.000000 -0.468638 -0.000000 0.883390 }
			scale={ 1.000000 1.000000 1.000000 }
		}
		{
			id=70
			position={ 2309.000000 0.000000 2783.000000 }
			rotation={ -0.000000 -0.993560 -0.000000 0.113304 }
			scale={ 1.000000 1.000000 1.000000 }
		}
		{
			id=71
			position={ 2270.000000 0.000000 2805.000000 }
			rotation={ -0.000000 -0.568649 -0.000000 -0.822580 }
			scale={ 1.000000 1.000000 1.000000 }
		}
		{
			id=72
			position={ 2281.000000 0.000000 2784.000000 }
			rotation={ -0.000000 -0.650848 -0.000000 0.759208 }
			scale={ 1.000000 1.000000 1.000000 }
		}
		{
			id=73
			position={ 2268.000000 0.000000 2831.000000 }
			rotation={ -0.000000 -0.996219 -0.000000 -0.086880 }
			scale={ 1.000000 1.000000 1.000000 }
		}
		{
			id=74
			position={ 2288.000000 0.000000 2798.000000 }
			rotation={ -0.000000 -0.990935 -0.000000 0.134343 }
			scale={ 1.000000 1.000000 1.000000 }
		}
		{
			id=75
			position={ 2359.000000 0.000000 2830.000000 }
			rotation={ -0.000000 -0.999983 -0.000000 -0.005813 }
			scale={ 1.000000 1.000000 1.000000 }
		}
		{
			id=76
			position={ 2373.000000 0.000000 2841.000000 }
			rotation={ -0.000000 -0.537614 -0.000000 0.843191 }
			scale={ 1.000000 1.000000 1.000000 }
		}
		{
			id=77
			position={ 2358.000000 0.000000 2841.000000 }
			rotation={ -0.000000 -0.978319 -0.000000 0.207105 }
			scale={ 1.000000 1.000000 1.000000 }
		}
		{
			id=78
			position={ 2370.000000 0.000000 2820.000000 }
			rotation={ -0.000000 -0.695829 -0.000000 -0.718208 }
			scale={ 1.000000 1.000000 1.000000 }
		}
		{
			id=79
			position={ 2402.000000 0.000000 2827.000000 }
			rotation={ -0.000000 -0.991064 -0.000000 -0.133389 }
			scale={ 1.000000 1.000000 1.000000 }
		}
		{
			id=80
			position={ 2408.000000 0.000000 2815.000000 }
			rotation={ -0.000000 -0.999996 -0.000000 0.002784 }
			scale={ 1.000000 1.000000 1.000000 }
		}
		{
			id=81
			position={ 2386.000000 0.000000 2834.000000 }
			rotation={ -0.000000 -0.743445 -0.000000 0.668797 }
			scale={ 1.000000 1.000000 1.000000 }
		}
		{
			id=82
			position={ 2389.000000 0.000000 2819.000000 }
			rotation={ -0.000000 -0.325353 -0.000000 -0.945593 }
			scale={ 1.000000 1.000000 1.000000 }
		}
		{
			id=83
			position={ 2375.000000 0.000000 2804.000000 }
			rotation={ -0.000000 -0.923767 -0.000000 0.382955 }
			scale={ 1.000000 1.000000 1.000000 }
		}
		{
			id=84
			position={ 2388.000000 0.000000 2798.000000 }
			rotation={ -0.000000 -0.094482 -0.000000 -0.995527 }
			scale={ 1.000000 1.000000 1.000000 }
		}
		{
			id=85
			position={ 2372.000000 0.000000 2787.000000 }
			rotation={ -0.000000 -0.999685 -0.000000 0.025085 }
			scale={ 1.000000 1.000000 1.000000 }
		}
		{
			id=86
			position={ 2364.000000 0.000000 2779.000000 }
			rotation={ -0.000000 -0.993650 -0.000000 0.112513 }
			scale={ 1.000000 1.000000 1.000000 }
		}
		{
			id=87
			position={ 2345.000000 0.000000 2800.000000 }
			rotation={ -0.000000 -0.654168 -0.000000 -0.756349 }
			scale={ 1.000000 1.000000 1.000000 }
		}
		{
			id=88
			position={ 2358.000000 0.000000 2796.000000 }
			rotation={ -0.000000 -0.352530 -0.000000 -0.935800 }
			scale={ 1.000000 1.000000 1.000000 }
		}
		{
			id=89
			position={ 2356.000000 0.000000 2814.000000 }
			rotation={ -0.000000 -0.930228 -0.000000 0.366983 }
			scale={ 1.000000 1.000000 1.000000 }
		}
		{
			id=90
			position={ 2326.000000 0.000000 2813.000000 }
			rotation={ -0.000000 -0.206780 -0.000000 -0.978387 }
			scale={ 1.000000 1.000000 1.000000 }
		}
		{
			id=91
			position={ 2344.000000 0.000000 2817.000000 }
			rotation={ -0.000000 -0.983112 -0.000000 -0.183007 }
			scale={ 1.000000 1.000000 1.000000 }
		}
		{
			id=92
			position={ 2327.000000 0.000000 2800.000000 }
			rotation={ -0.000000 -0.610812 -0.000000 0.791775 }
			scale={ 1.000000 1.000000 1.000000 }
		}
		{
			id=93
			position={ 2310.000000 0.000000 2803.000000 }
			rotation={ -0.000000 -0.812407 -0.000000 -0.583091 }
			scale={ 1.000000 1.000000 1.000000 }
		}
		{
			id=94
			position={ 2294.000000 0.000000 2815.000000 }
			rotation={ -0.000000 -0.998759 -0.000000 -0.049800 }
			scale={ 1.000000 1.000000 1.000000 }
		}
		{
			id=95
			position={ 2283.000000 0.000000 2813.000000 }
			rotation={ -0.000000 -0.071859 -0.000000 0.997415 }
			scale={ 1.000000 1.000000 1.000000 }
		}
		{
			id=96
			position={ 2286.000000 0.000000 2832.000000 }
			rotation={ -0.000000 -0.204345 -0.000000 -0.978899 }
			scale={ 1.000000 1.000000 1.000000 }
		}
		{
			id=97
			position={ 2283.000000 0.000000 2845.000000 }
			rotation={ -0.000000 -0.002388 -0.000000 0.999997 }
			scale={ 1.000000 1.000000 1.000000 }
		}
		{
			id=98
			position={ 2360.000000 0.000000 2859.000000 }
			rotation={ -0.000000 -0.500701 -0.000000 -0.865620 }
			scale={ 1.000000 1.000000 1.000000 }
		}
		{
			id=99
			position={ 2362.000000 0.000000 2851.000000 }
			rotation={ -0.000000 -0.505986 -0.000000 -0.862542 }
			scale={ 1.000000 1.000000 1.000000 }
		}
		{
			id=100
			position={ 2353.000000 0.000000 2864.000000 }
			rotation={ -0.000000 -0.688989 -0.000000 0.724771 }
			scale={ 1.000000 1.000000 1.000000 }
		}
		{
			id=101
			position={ 2321.000000 0.000000 2835.000000 }
			rotation={ -0.000000 -0.971224 -0.000000 -0.238167 }
			scale={ 1.000000 1.000000 1.000000 }
		}
		{
			id=102
			position={ 2332.000000 0.000000 2825.000000 }
			rotation={ -0.000000 -0.195973 -0.000000 0.980609 }
			scale={ 1.000000 1.000000 1.000000 }
		}
		{
			id=103
			position={ 2334.000000 0.000000 2840.000000 }
			rotation={ -0.000000 -0.297401 -0.000000 0.954753 }
			scale={ 1.000000 1.000000 1.000000 }
		}
		{
			id=104
			position={ 2336.000000 0.000000 2858.000000 }
			rotation={ -0.000000 -0.993122 -0.000000 -0.117088 }
			scale={ 1.000000 1.000000 1.000000 }
		}
		{
			id=105
			position={ 2343.000000 0.000000 2848.000000 }
			rotation={ -0.000000 -0.394182 -0.000000 0.919033 }
			scale={ 1.000000 1.000000 1.000000 }
		}
		{
			id=106
			position={ 2320.000000 0.000000 2853.000000 }
			rotation={ -0.000000 -0.437148 -0.000000 0.899390 }
			scale={ 1.000000 1.000000 1.000000 }
		}
		{
			id=107
			position={ 2334.000000 0.000000 2870.000000 }
			rotation={ -0.000000 -0.170762 -0.000000 -0.985312 }
			scale={ 1.000000 1.000000 1.000000 }
		}
		{
			id=108
			position={ 2317.000000 0.000000 2867.000000 }
			rotation={ -0.000000 -0.457984 -0.000000 0.888961 }
			scale={ 1.000000 1.000000 1.000000 }
		}
		{
			id=109
			position={ 2308.000000 0.000000 2821.000000 }
			rotation={ -0.000000 -0.109299 -0.000000 0.994009 }
			scale={ 1.000000 1.000000 1.000000 }
		}
		{
			id=110
			position={ 2305.000000 0.000000 2837.000000 }
			rotation={ -0.000000 -0.933578 -0.000000 -0.358374 }
			scale={ 1.000000 1.000000 1.000000 }
		}
		{
			id=111
			position={ 2304.000000 0.000000 2853.000000 }
			rotation={ -0.000000 -0.999097 -0.000000 0.042480 }
			scale={ 1.000000 1.000000 1.000000 }
		}
		{
			id=112
			position={ 2305.000000 0.000000 2871.000000 }
			rotation={ -0.000000 -0.992791 -0.000000 -0.119857 }
			scale={ 1.000000 1.000000 1.000000 }
		}
		{
			id=113
			position={ 2294.000000 0.000000 2863.000000 }
			rotation={ -0.000000 -0.985124 -0.000000 0.171844 }
			scale={ 1.000000 1.000000 1.000000 }
		}
		{
			id=114
			position={ 2305.000000 0.000000 2883.000000 }
			rotation={ -0.000000 -0.920367 -0.000000 -0.391057 }
			scale={ 1.000000 1.000000 1.000000 }
		}
		{
			id=115
			position={ 2317.000000 0.000000 2884.000000 }
			rotation={ -0.000000 -0.864299 -0.000000 -0.502978 }
			scale={ 1.000000 1.000000 1.000000 }
		}
		{
			id=116
			position={ 2282.000000 0.000000 2916.000000 }
			rotation={ -0.000000 -0.999977 -0.000000 -0.006752 }
			scale={ 1.000000 1.000000 1.000000 }
		}
		{
			id=117
			position={ 2299.000000 0.000000 2917.000000 }
			rotation={ -0.000000 -0.999888 -0.000000 -0.014989 }
			scale={ 1.000000 1.000000 1.000000 }
		}
		{
			id=118
			position={ 2295.000000 0.000000 2909.000000 }
			rotation={ -0.000000 -0.982251 -0.000000 -0.187572 }
			scale={ 1.000000 1.000000 1.000000 }
		}
		{
			id=119
			position={ 2288.000000 0.000000 2902.000000 }
			rotation={ -0.000000 -0.892676 -0.000000 -0.450698 }
			scale={ 1.000000 1.000000 1.000000 }
		}
		{
			id=120
			position={ 2276.000000 0.000000 2901.000000 }
			rotation={ -0.000000 -0.539926 -0.000000 0.841712 }
			scale={ 1.000000 1.000000 1.000000 }
		}
		{
			id=121
			position={ 2268.000000 0.000000 2882.000000 }
			rotation={ -0.000000 -0.294730 -0.000000 0.955581 }
			scale={ 1.000000 1.000000 1.000000 }
		}
		{
			id=122
			position={ 2256.000000 0.000000 2873.000000 }
			rotation={ -0.000000 -0.728012 -0.000000 0.685564 }
			scale={ 1.000000 1.000000 1.000000 }
		}
		{
			id=123
			position={ 2280.000000 0.000000 2887.000000 }
			rotation={ -0.000000 -0.215327 -0.000000 -0.976542 }
			scale={ 1.000000 1.000000 1.000000 }
		}
		{
			id=124
			position={ 2270.000000 0.000000 2868.000000 }
			rotation={ -0.000000 -0.760319 -0.000000 -0.649550 }
			scale={ 1.000000 1.000000 1.000000 }
		}
		{
			id=125
			position={ 2259.000000 0.000000 2854.000000 }
			rotation={ -0.000000 -0.988975 -0.000000 0.148084 }
			scale={ 1.000000 1.000000 1.000000 }
		}
		{
			id=126
			position={ 2279.000000 0.000000 2858.000000 }
			rotation={ -0.000000 -0.262344 -0.000000 0.964974 }
			scale={ 1.000000 1.000000 1.000000 }
		}
		{
			id=127
			position={ 2293.000000 0.000000 2887.000000 }
			rotation={ -0.000000 -0.481152 -0.000000 -0.876637 }
			scale={ 1.000000 1.000000 1.000000 }
		}
		{
			id=128
			position={ 2283.000000 0.000000 2873.000000 }
			rotation={ -0.000000 -0.845423 -0.000000 -0.534098 }
			scale={ 1.000000 1.000000 1.000000 }
		}
		{
			id=129
			position={ 2304.000000 0.000000 2899.000000 }
			rotation={ -0.000000 -0.496537 -0.000000 -0.868016 }
			scale={ 1.000000 1.000000 1.000000 }
		}
		{
			id=130
			position={ 2338.000000 0.000000 2901.000000 }
			rotation={ -0.000000 -0.242426 -0.000000 -0.970170 }
			scale={ 1.000000 1.000000 1.000000 }
		}
		{
			id=131
			position={ 2319.000000 0.000000 2909.000000 }
			rotation={ -0.000000 -0.959371 -0.000000 -0.282148 }
			scale={ 1.000000 1.000000 1.000000 }
		}
		{
			id=132
			position={ 2319.000000 0.000000 2898.000000 }
			rotation={ -0.000000 -0.939111 -0.000000 0.343613 }
			scale={ 1.000000 1.000000 1.000000 }
		}
		{
			id=133
			position={ 2357.000000 0.000000 2902.000000 }
			rotation={ -0.000000 -0.569256 -0.000000 -0.822160 }
			scale={ 1.000000 1.000000 1.000000 }
		}
		{
			id=134
			position={ 2354.000000 0.000000 2880.000000 }
			rotation={ -0.000000 -0.264122 -0.000000 -0.964489 }
			scale={ 1.000000 1.000000 1.000000 }
		}
		{
			id=135
			position={ 2365.000000 0.000000 2885.000000 }
			rotation={ -0.000000 -0.930196 -0.000000 0.367063 }
			scale={ 1.000000 1.000000 1.000000 }
		}
		{
			id=136
			position={ 2344.000000 0.000000 2886.000000 }
			rotation={ -0.000000 -0.610293 -0.000000 0.792176 }
			scale={ 1.000000 1.000000 1.000000 }
		}
		{
			id=137
			position={ 2328.000000 0.000000 2887.000000 }
			rotation={ -0.000000 -0.970765 -0.000000 -0.240033 }
			scale={ 1.000000 1.000000 1.000000 }
		}
		{
			id=138
			position={ 2394.000000 0.000000 2898.000000 }
			rotation={ -0.000000 -0.489430 -0.000000 0.872043 }
			scale={ 1.000000 1.000000 1.000000 }
		}
		{
			id=139
			position={ 2377.000000 0.000000 2895.000000 }
			rotation={ -0.000000 -0.855203 -0.000000 0.518293 }
			scale={ 1.000000 1.000000 1.000000 }
		}
		{
			id=140
			position={ 2378.000000 0.000000 2914.000000 }
			rotation={ -0.000000 -0.271349 -0.000000 0.962481 }
			scale={ 1.000000 1.000000 1.000000 }
		}
		{
			id=141
			position={ 2403.000000 0.000000 2917.000000 }
			rotation={ -0.000000 -0.955889 -0.000000 0.293728 }
			scale={ 1.000000 1.000000 1.000000 }
		}
		{
			id=142
			position={ 2430.000000 0.000000 2908.000000 }
			rotation={ -0.000000 -0.861351 -0.000000 -0.508010 }
			scale={ 1.000000 1.000000 1.000000 }
		}
		{
			id=143
			position={ 2412.000000 0.000000 2904.000000 }
			rotation={ -0.000000 -0.983452 -0.000000 0.181167 }
			scale={ 1.000000 1.000000 1.000000 }
		}
		{
			id=144
			position={ 2432.000000 0.000000 2919.000000 }
			rotation={ -0.000000 -0.883680 -0.000000 -0.468091 }
			scale={ 1.000000 1.000000 1.000000 }
		}
		{
			id=145
			position={ 2473.000000 0.000000 2901.000000 }
			rotation={ -0.000000 -0.214028 -0.000000 -0.976828 }
			scale={ 1.000000 1.000000 1.000000 }
		}
		{
			id=146
			position={ 2451.000000 0.000000 2904.000000 }
			rotation={ -0.000000 -0.996354 -0.000000 -0.085315 }
			scale={ 1.000000 1.000000 1.000000 }
		}
		{
			id=147
			position={ 2498.000000 0.000000 2895.000000 }
			rotation={ -0.000000 -0.851770 -0.000000 0.523915 }
			scale={ 1.000000 1.000000 1.000000 }
		}
		{
			id=148
			position={ 2537.000000 0.000000 2897.000000 }
			rotation={ -0.000000 -0.986202 -0.000000 0.165549 }
			scale={ 1.000000 1.000000 1.000000 }
		}
		{
			id=149
			position={ 2613.000000 0.000000 2864.000000 }
			rotation={ -0.000000 -0.878244 -0.000000 -0.478213 }
			scale={ 1.000000 1.000000 1.000000 }
		}
		{
			id=150
			position={ 2611.000000 0.000000 2852.000000 }
			rotation={ -0.000000 -0.336850 -0.000000 0.941558 }
			scale={ 1.000000 1.000000 1.000000 }
		}
		{
			id=151
			position={ 2599.000000 0.000000 2873.000000 }
			rotation={ -0.000000 -0.696036 -0.000000 -0.718006 }
			scale={ 1.000000 1.000000 1.000000 }
		}
		{
			id=152
			position={ 2597.000000 0.000000 2846.000000 }
			rotation={ -0.000000 -0.457727 -0.000000 0.889093 }
			scale={ 1.000000 1.000000 1.000000 }
		}
		{
			id=153
			position={ 2578.000000 0.000000 2842.000000 }
			rotation={ -0.000000 -0.853339 -0.000000 0.521356 }
			scale={ 1.000000 1.000000 1.000000 }
		}
		{
			id=154
			position={ 2565.000000 0.000000 2830.000000 }
			rotation={ -0.000000 -0.412588 -0.000000 -0.910918 }
			scale={ 1.000000 1.000000 1.000000 }
		}
		{
			id=155
			position={ 2588.000000 0.000000 2857.000000 }
			rotation={ -0.000000 -0.919921 -0.000000 0.392103 }
			scale={ 1.000000 1.000000 1.000000 }
		}
		{
			id=156
			position={ 2567.000000 0.000000 2852.000000 }
			rotation={ -0.000000 -0.974702 -0.000000 0.223509 }
			scale={ 1.000000 1.000000 1.000000 }
		}
		{
			id=157
			position={ 2583.000000 0.000000 2885.000000 }
			rotation={ -0.000000 -0.987898 -0.000000 0.155108 }
			scale={ 1.000000 1.000000 1.000000 }
		}
		{
			id=158
			position={ 2562.000000 0.000000 2891.000000 }
			rotation={ -0.000000 -0.999791 -0.000000 -0.020447 }
			scale={ 1.000000 1.000000 1.000000 }
		}
		{
			id=159
			position={ 2549.000000 0.000000 2881.000000 }
			rotation={ -0.000000 -0.637432 -0.000000 0.770506 }
			scale={ 1.000000 1.000000 1.000000 }
		}
		{
			id=160
			position={ 2574.000000 0.000000 2880.000000 }
			rotation={ -0.000000 -0.134762 -0.000000 -0.990878 }
			scale={ 1.000000 1.000000 1.000000 }
		}
		{
			id=161
			position={ 2585.000000 0.000000 2867.000000 }
			rotation={ -0.000000 -0.946359 -0.000000 0.323117 }
			scale={ 1.000000 1.000000 1.000000 }
		}
		{
			id=162
			position={ 2561.000000 0.000000 2871.000000 }
			rotation={ -0.000000 -0.985502 -0.000000 -0.169667 }
			scale={ 1.000000 1.000000 1.000000 }
		}
		{
			id=163
			position={ 2570.000000 0.000000 2865.000000 }
			rotation={ -0.000000 -0.957789 -0.000000 -0.287472 }
			scale={ 1.000000 1.000000 1.000000 }
		}
		{
			id=164
			position={ 2425.000000 0.000000 2884.000000 }
			rotation={ -0.000000 -0.123395 -0.000000 0.992358 }
			scale={ 1.000000 1.000000 1.000000 }
		}
		{
			id=165
			position={ 2413.000000 0.000000 2878.000000 }
			rotation={ -0.000000 -0.275274 -0.000000 -0.961366 }
			scale={ 1.000000 1.000000 1.000000 }
		}
		{
			id=166
			position={ 2452.000000 0.000000 2880.000000 }
			rotation={ -0.000000 -0.636981 -0.000000 -0.770880 }
			scale={ 1.000000 1.000000 1.000000 }
		}
		{
			id=167
			position={ 2441.000000 0.000000 2872.000000 }
			rotation={ -0.000000 -0.518376 -0.000000 0.855153 }
			scale={ 1.000000 1.000000 1.000000 }
		}
		{
			id=168
			position={ 2477.000000 0.000000 2876.000000 }
			rotation={ -0.000000 -0.989100 -0.000000 0.147246 }
			scale={ 1.000000 1.000000 1.000000 }
		}
		{
			id=169
			position={ 2506.000000 0.000000 2882.000000 }
			rotation={ -0.000000 -0.768186 -0.000000 -0.640227 }
			scale={ 1.000000 1.000000 1.000000 }
		}
		{
			id=170
			position={ 2508.000000 0.000000 2864.000000 }
			rotation={ -0.000000 -0.990630 -0.000000 -0.136572 }
			scale={ 1.000000 1.000000 1.000000 }
		}
		{
			id=171
			position={ 2530.000000 0.000000 2821.000000 }
			rotation={ -0.000000 -0.263806 -0.000000 0.964576 }
			scale={ 1.000000 1.000000 1.000000 }
		}
		{
			id=172
			position={ 2531.000000 0.000000 2842.000000 }
			rotation={ -0.000000 -0.487929 -0.000000 -0.872883 }
			scale={ 1.000000 1.000000 1.000000 }
		}
		{
			id=173
			position={ 2530.000000 0.000000 2874.000000 }
			rotation={ -0.000000 -0.107226 -0.000000 -0.994235 }
			scale={ 1.000000 1.000000 1.000000 }
		}
		{
			id=174
			position={ 2539.000000 0.000000 2856.000000 }
			rotation={ -0.000000 -0.284115 -0.000000 0.958790 }
			scale={ 1.000000 1.000000 1.000000 }
		}
		{
			id=175
			position={ 2438.000000 0.000000 2722.000000 }
			rotation={ -0.000000 -0.762799 -0.000000 -0.646636 }
			scale={ 1.000000 1.000000 1.000000 }
		}
		{
			id=176
			position={ 2453.000000 0.000000 2717.000000 }
			rotation={ -0.000000 -0.559566 -0.000000 -0.828786 }
			scale={ 1.000000 1.000000 1.000000 }
		}
		{
			id=177
			position={ 2448.000000 0.000000 2734.000000 }
			rotation={ -0.000000 -0.617311 -0.000000 -0.786719 }
			scale={ 1.000000 1.000000 1.000000 }
		}
		{
			id=178
			position={ 2435.000000 0.000000 2698.000000 }
			rotation={ -0.000000 -0.952601 -0.000000 -0.304223 }
			scale={ 1.000000 1.000000 1.000000 }
		}
		{
			id=179
			position={ 2463.000000 0.000000 2753.000000 }
			rotation={ -0.000000 -0.832490 -0.000000 -0.554040 }
			scale={ 1.000000 1.000000 1.000000 }
		}
		{
			id=180
			position={ 2445.000000 0.000000 2760.000000 }
			rotation={ -0.000000 -0.734106 -0.000000 0.679035 }
			scale={ 1.000000 1.000000 1.000000 }
		}
		{
			id=181
			position={ 2442.000000 0.000000 2747.000000 }
			rotation={ -0.000000 -0.980034 -0.000000 -0.198831 }
			scale={ 1.000000 1.000000 1.000000 }
		}
		{
			id=182
			position={ 2404.000000 0.000000 2737.000000 }
			rotation={ -0.000000 -0.766450 -0.000000 0.642305 }
			scale={ 1.000000 1.000000 1.000000 }
		}
		{
			id=183
			position={ 2399.000000 0.000000 2748.000000 }
			rotation={ -0.000000 -0.335389 -0.000000 0.942080 }
			scale={ 1.000000 1.000000 1.000000 }
		}
		{
			id=184
			position={ 2420.000000 0.000000 2757.000000 }
			rotation={ -0.000000 -0.955598 -0.000000 0.294674 }
			scale={ 1.000000 1.000000 1.000000 }
		}
		{
			id=185
			position={ 2422.000000 0.000000 2742.000000 }
			rotation={ -0.000000 -0.324108 -0.000000 0.946020 }
			scale={ 1.000000 1.000000 1.000000 }
		}
		{
			id=186
			position={ 2425.000000 0.000000 2734.000000 }
			rotation={ -0.000000 -0.099108 -0.000000 -0.995077 }
			scale={ 1.000000 1.000000 1.000000 }
		}
		{
			id=187
			position={ 2413.000000 0.000000 2726.000000 }
			rotation={ -0.000000 -0.077656 -0.000000 -0.996980 }
			scale={ 1.000000 1.000000 1.000000 }
		}
		{
			id=188
			position={ 2384.000000 0.000000 2692.000000 }
			rotation={ -0.000000 -0.956876 -0.000000 -0.290497 }
			scale={ 1.000000 1.000000 1.000000 }
		}
		{
			id=189
			position={ 2409.000000 0.000000 2695.000000 }
			rotation={ -0.000000 -0.289009 -0.000000 0.957326 }
			scale={ 1.000000 1.000000 1.000000 }
		}
		{
			id=190
			position={ 2417.000000 0.000000 2713.000000 }
			rotation={ -0.000000 -0.993411 -0.000000 -0.114607 }
			scale={ 1.000000 1.000000 1.000000 }
		}
		{
			id=191
			position={ 2394.000000 0.000000 2707.000000 }
			rotation={ -0.000000 -0.462438 -0.000000 -0.886652 }
			scale={ 1.000000 1.000000 1.000000 }
		}
		{
			id=192
			position={ 2349.000000 0.000000 2722.000000 }
			rotation={ -0.000000 -0.435511 -0.000000 -0.900183 }
			scale={ 1.000000 1.000000 1.000000 }
		}
		{
			id=193
			position={ 2366.000000 0.000000 2712.000000 }
			rotation={ -0.000000 -0.868883 -0.000000 0.495018 }
			scale={ 1.000000 1.000000 1.000000 }
		}
		{
			id=194
			position={ 2359.000000 0.000000 2736.000000 }
			rotation={ -0.000000 -0.550662 -0.000000 0.834728 }
			scale={ 1.000000 1.000000 1.000000 }
		}
		{
			id=195
			position={ 2379.000000 0.000000 2738.000000 }
			rotation={ -0.000000 -0.970271 -0.000000 0.242023 }
			scale={ 1.000000 1.000000 1.000000 }
		}
		{
			id=196
			position={ 2368.000000 0.000000 2726.000000 }
			rotation={ -0.000000 -0.056938 -0.000000 -0.998378 }
			scale={ 1.000000 1.000000 1.000000 }
		}
		{
			id=197
			position={ 2382.000000 0.000000 2716.000000 }
			rotation={ -0.000000 -0.209993 -0.000000 -0.977703 }
			scale={ 1.000000 1.000000 1.000000 }
		}
		{
			id=198
			position={ 2391.000000 0.000000 2726.000000 }
			rotation={ -0.000000 -0.220515 -0.000000 0.975384 }
			scale={ 1.000000 1.000000 1.000000 }
		}
		{
			id=199
			position={ 2182.000000 0.000000 2733.000000 }
			rotation={ -0.000000 -0.672384 -0.000000 0.740202 }
			scale={ 1.000000 1.000000 1.000000 }
		}
		{
			id=200
			position={ 2171.000000 0.000000 2712.000000 }
			rotation={ -0.000000 -0.637019 -0.000000 0.770848 }
			scale={ 1.000000 1.000000 1.000000 }
		}
		{
			id=201
			position={ 2190.000000 0.000000 2718.000000 }
			rotation={ -0.000000 -0.886124 -0.000000 -0.463449 }
			scale={ 1.000000 1.000000 1.000000 }
		}
		{
			id=202
			position={ 2203.000000 0.000000 2742.000000 }
			rotation={ -0.000000 -0.086285 -0.000000 0.996270 }
			scale={ 1.000000 1.000000 1.000000 }
		}
		{
			id=203
			position={ 2160.000000 0.000000 2724.000000 }
			rotation={ -0.000000 -0.164325 -0.000000 0.986406 }
			scale={ 1.000000 1.000000 1.000000 }
		}
		{
			id=204
			position={ 2170.000000 0.000000 2755.000000 }
			rotation={ -0.000000 -0.364700 -0.000000 -0.931125 }
			scale={ 1.000000 1.000000 1.000000 }
		}
		{
			id=205
			position={ 2168.000000 0.000000 2742.000000 }
			rotation={ -0.000000 -0.893882 -0.000000 -0.448302 }
			scale={ 1.000000 1.000000 1.000000 }
		}
		{
			id=206
			position={ 2195.000000 0.000000 2753.000000 }
			rotation={ -0.000000 -0.792649 -0.000000 0.609678 }
			scale={ 1.000000 1.000000 1.000000 }
		}
		{
			id=207
			position={ 2193.000000 0.000000 2764.000000 }
			rotation={ -0.000000 -0.999909 -0.000000 0.013506 }
			scale={ 1.000000 1.000000 1.000000 }
		}
		{
			id=208
			position={ 2235.000000 0.000000 2776.000000 }
			rotation={ -0.000000 -0.752369 -0.000000 0.658742 }
			scale={ 1.000000 1.000000 1.000000 }
		}
		{
			id=209
			position={ 2218.000000 0.000000 2763.000000 }
			rotation={ -0.000000 -0.990538 -0.000000 0.137236 }
			scale={ 1.000000 1.000000 1.000000 }
		}
		{
			id=210
			position={ 2256.000000 0.000000 2785.000000 }
			rotation={ -0.000000 -0.132404 -0.000000 0.991196 }
			scale={ 1.000000 1.000000 1.000000 }
		}
		{
			id=211
			position={ 2211.000000 0.000000 2776.000000 }
			rotation={ -0.000000 -0.385862 -0.000000 0.922557 }
			scale={ 1.000000 1.000000 1.000000 }
		}
		{
			id=212
			position={ 2219.000000 0.000000 2806.000000 }
			rotation={ -0.000000 -0.136451 -0.000000 0.990647 }
			scale={ 1.000000 1.000000 1.000000 }
		}
		{
			id=213
			position={ 2207.000000 0.000000 2789.000000 }
			rotation={ -0.000000 -0.931349 -0.000000 -0.364129 }
			scale={ 1.000000 1.000000 1.000000 }
		}
		{
			id=214
			position={ 2226.000000 0.000000 2792.000000 }
			rotation={ -0.000000 -0.562074 -0.000000 -0.827087 }
			scale={ 1.000000 1.000000 1.000000 }
		}
		{
			id=215
			position={ 2253.000000 0.000000 2798.000000 }
			rotation={ -0.000000 -0.946288 -0.000000 -0.323326 }
			scale={ 1.000000 1.000000 1.000000 }
		}
		{
			id=216
			position={ 2239.000000 0.000000 2798.000000 }
			rotation={ -0.000000 -0.465543 -0.000000 -0.885025 }
			scale={ 1.000000 1.000000 1.000000 }
		}
		{
			id=217
			position={ 2243.000000 0.000000 2815.000000 }
			rotation={ -0.000000 -0.038535 -0.000000 0.999257 }
			scale={ 1.000000 1.000000 1.000000 }
		}
		{
			id=218
			position={ 2257.000000 0.000000 2823.000000 }
			rotation={ -0.000000 -0.834334 -0.000000 -0.551260 }
			scale={ 1.000000 1.000000 1.000000 }
		}
		{
			id=219
			position={ 2247.000000 0.000000 2837.000000 }
			rotation={ -0.000000 -0.995750 -0.000000 -0.092101 }
			scale={ 1.000000 1.000000 1.000000 }
		}
		{
			id=220
			position={ 2233.000000 0.000000 2842.000000 }
			rotation={ -0.000000 -0.280250 -0.000000 -0.959927 }
			scale={ 1.000000 1.000000 1.000000 }
		}
		{
			id=221
			position={ 2226.000000 0.000000 2821.000000 }
			rotation={ -0.000000 -0.405234 -0.000000 0.914213 }
			scale={ 1.000000 1.000000 1.000000 }
		}
		{
			id=222
			position={ 2225.000000 0.000000 2880.000000 }
			rotation={ -0.000000 -0.884470 -0.000000 0.466597 }
			scale={ 1.000000 1.000000 1.000000 }
		}
		{
			id=223
			position={ 2242.000000 0.000000 2870.000000 }
			rotation={ -0.000000 -0.839243 -0.000000 0.543756 }
			scale={ 1.000000 1.000000 1.000000 }
		}
		{
			id=224
			position={ 2232.000000 0.000000 2862.000000 }
			rotation={ -0.000000 -0.336763 -0.000000 0.941589 }
			scale={ 1.000000 1.000000 1.000000 }
		}
		{
			id=225
			position={ 2230.000000 0.000000 2902.000000 }
			rotation={ -0.000000 -0.687706 -0.000000 0.725989 }
			scale={ 1.000000 1.000000 1.000000 }
		}
		{
			id=226
			position={ 2217.000000 0.000000 2899.000000 }
			rotation={ -0.000000 -0.295861 -0.000000 -0.955231 }
			scale={ 1.000000 1.000000 1.000000 }
		}
		{
			id=227
			position={ 2218.000000 0.000000 2935.000000 }
			rotation={ -0.000000 -0.741922 -0.000000 0.670486 }
			scale={ 1.000000 1.000000 1.000000 }
		}
		{
			id=228
			position={ 2228.000000 0.000000 2919.000000 }
			rotation={ -0.000000 -0.904633 -0.000000 -0.426191 }
			scale={ 1.000000 1.000000 1.000000 }
		}
		{
			id=229
			position={ 2210.000000 0.000000 2922.000000 }
			rotation={ -0.000000 -0.400397 -0.000000 0.916342 }
			scale={ 1.000000 1.000000 1.000000 }
		}
		{
			id=230
			position={ 2183.000000 0.000000 2949.000000 }
			rotation={ -0.000000 -0.176278 -0.000000 0.984340 }
			scale={ 1.000000 1.000000 1.000000 }
		}
		{
			id=231
			position={ 2201.000000 0.000000 2943.000000 }
			rotation={ -0.000000 -0.999704 -0.000000 0.024334 }
			scale={ 1.000000 1.000000 1.000000 }
		}
		{
			id=232
			position={ 2160.000000 0.000000 2950.000000 }
			rotation={ -0.000000 -0.920587 -0.000000 0.390538 }
			scale={ 1.000000 1.000000 1.000000 }
		}
		{
			id=233
			position={ 2176.000000 0.000000 2937.000000 }
			rotation={ -0.000000 -0.739282 -0.000000 -0.673396 }
			scale={ 1.000000 1.000000 1.000000 }
		}
		{
			id=234
			position={ 2120.000000 0.000000 2929.000000 }
			rotation={ -0.000000 -0.633269 -0.000000 -0.773932 }
			scale={ 1.000000 1.000000 1.000000 }
		}
		{
			id=235
			position={ 2137.000000 0.000000 2945.000000 }
			rotation={ -0.000000 -0.011342 -0.000000 0.999936 }
			scale={ 1.000000 1.000000 1.000000 }
		}
		{
			id=236
			position={ 2138.000000 0.000000 2931.000000 }
			rotation={ -0.000000 -0.142846 -0.000000 -0.989745 }
			scale={ 1.000000 1.000000 1.000000 }
		}
		{
			id=237
			position={ 2081.000000 0.000000 2711.000000 }
			rotation={ -0.000000 -0.271760 -0.000000 -0.962365 }
			scale={ 1.000000 1.000000 1.000000 }
		}
		{
			id=238
			position={ 2101.000000 0.000000 2704.000000 }
			rotation={ -0.000000 -0.948861 -0.000000 0.315694 }
			scale={ 1.000000 1.000000 1.000000 }
		}
		{
			id=239
			position={ 2106.000000 0.000000 2717.000000 }
			rotation={ -0.000000 -0.950897 -0.000000 0.309507 }
			scale={ 1.000000 1.000000 1.000000 }
		}
		{
			id=240
			position={ 2094.000000 0.000000 2726.000000 }
			rotation={ -0.000000 -0.925736 -0.000000 -0.378169 }
			scale={ 1.000000 1.000000 1.000000 }
		}
		{
			id=241
			position={ 2136.000000 0.000000 2703.000000 }
			rotation={ -0.000000 -0.094292 -0.000000 -0.995545 }
			scale={ 1.000000 1.000000 1.000000 }
		}
		{
			id=242
			position={ 2149.000000 0.000000 2711.000000 }
			rotation={ -0.000000 -0.725537 -0.000000 0.688183 }
			scale={ 1.000000 1.000000 1.000000 }
		}
		{
			id=243
			position={ 2120.000000 0.000000 2708.000000 }
			rotation={ -0.000000 -0.940122 -0.000000 0.340838 }
			scale={ 1.000000 1.000000 1.000000 }
		}
		{
			id=244
			position={ 2145.000000 0.000000 2736.000000 }
			rotation={ -0.000000 -0.196752 -0.000000 0.980453 }
			scale={ 1.000000 1.000000 1.000000 }
		}
		{
			id=245
			position={ 2121.000000 0.000000 2730.000000 }
			rotation={ -0.000000 -0.958236 -0.000000 0.285978 }
			scale={ 1.000000 1.000000 1.000000 }
		}
		{
			id=246
			position={ 2133.000000 0.000000 2719.000000 }
			rotation={ -0.000000 -0.452578 -0.000000 0.891725 }
			scale={ 1.000000 1.000000 1.000000 }
		}
		{
			id=247
			position={ 2144.000000 0.000000 2752.000000 }
			rotation={ -0.000000 -0.486303 -0.000000 0.873790 }
			scale={ 1.000000 1.000000 1.000000 }
		}
		{
			id=248
			position={ 2115.000000 0.000000 2740.000000 }
			rotation={ -0.000000 -0.997587 -0.000000 0.069434 }
			scale={ 1.000000 1.000000 1.000000 }
		}
		{
			id=249
			position={ 2064.000000 0.000000 2724.000000 }
			rotation={ -0.000000 -0.130280 -0.000000 -0.991477 }
			scale={ 1.000000 1.000000 1.000000 }
		}
		{
			id=250
			position={ 2083.000000 0.000000 2730.000000 }
			rotation={ -0.000000 -0.882229 -0.000000 -0.470821 }
			scale={ 1.000000 1.000000 1.000000 }
		}
		{
			id=251
			position={ 2063.000000 0.000000 2734.000000 }
			rotation={ -0.000000 -0.135767 -0.000000 0.990741 }
			scale={ 1.000000 1.000000 1.000000 }
		}
		{
			id=252
			position={ 2043.000000 0.000000 2732.000000 }
			rotation={ -0.000000 -0.882588 -0.000000 0.470147 }
			scale={ 1.000000 1.000000 1.000000 }
		}
		{
			id=253
			position={ 1982.000000 0.000000 2747.000000 }
			rotation={ -0.000000 -0.999776 -0.000000 0.021185 }
			scale={ 1.000000 1.000000 1.000000 }
		}
		{
			id=254
			position={ 2000.000000 0.000000 2743.000000 }
			rotation={ -0.000000 -0.610851 -0.000000 -0.791745 }
			scale={ 1.000000 1.000000 1.000000 }
		}
		{
			id=255
			position={ 2006.000000 0.000000 2756.000000 }
			rotation={ -0.000000 -0.761155 -0.000000 -0.648570 }
			scale={ 1.000000 1.000000 1.000000 }
		}
		{
			id=256
			position={ 2023.000000 0.000000 2743.000000 }
			rotation={ -0.000000 -0.857091 -0.000000 0.515165 }
			scale={ 1.000000 1.000000 1.000000 }
		}
		{
			id=257
			position={ 2023.000000 0.000000 2763.000000 }
			rotation={ -0.000000 -0.354740 -0.000000 0.934965 }
			scale={ 1.000000 1.000000 1.000000 }
		}
		{
			id=258
			position={ 2026.000000 0.000000 2793.000000 }
			rotation={ -0.000000 -0.074436 -0.000000 -0.997226 }
			scale={ 1.000000 1.000000 1.000000 }
		}
		{
			id=259
			position={ 2040.000000 0.000000 2793.000000 }
			rotation={ -0.000000 -0.004664 -0.000000 -0.999989 }
			scale={ 1.000000 1.000000 1.000000 }
		}
		{
			id=260
			position={ 2044.000000 0.000000 2784.000000 }
			rotation={ -0.000000 -0.703078 -0.000000 0.711113 }
			scale={ 1.000000 1.000000 1.000000 }
		}
		{
			id=261
			position={ 2027.000000 0.000000 2780.000000 }
			rotation={ -0.000000 -0.962764 -0.000000 -0.270342 }
			scale={ 1.000000 1.000000 1.000000 }
		}
		{
			id=262
			position={ 2037.000000 0.000000 2769.000000 }
			rotation={ -0.000000 -0.997676 -0.000000 0.068133 }
			scale={ 1.000000 1.000000 1.000000 }
		}
		{
			id=263
			position={ 2049.000000 0.000000 2765.000000 }
			rotation={ -0.000000 -0.277246 -0.000000 0.960799 }
			scale={ 1.000000 1.000000 1.000000 }
		}
		{
			id=264
			position={ 2036.000000 0.000000 2751.000000 }
			rotation={ -0.000000 -0.206966 -0.000000 0.978348 }
			scale={ 1.000000 1.000000 1.000000 }
		}
		{
			id=265
			position={ 2073.000000 0.000000 2791.000000 }
			rotation={ -0.000000 -0.810088 -0.000000 0.586309 }
			scale={ 1.000000 1.000000 1.000000 }
		}
		{
			id=266
			position={ 2059.000000 0.000000 2792.000000 }
			rotation={ -0.000000 -0.311367 -0.000000 -0.950290 }
			scale={ 1.000000 1.000000 1.000000 }
		}
		{
			id=267
			position={ 2060.000000 0.000000 2780.000000 }
			rotation={ -0.000000 -0.981915 -0.000000 0.189322 }
			scale={ 1.000000 1.000000 1.000000 }
		}
		{
			id=268
			position={ 2086.000000 0.000000 2802.000000 }
			rotation={ -0.000000 -0.950233 -0.000000 0.311541 }
			scale={ 1.000000 1.000000 1.000000 }
		}
		{
			id=269
			position={ 2090.000000 0.000000 2789.000000 }
			rotation={ -0.000000 -0.639658 -0.000000 0.768660 }
			scale={ 1.000000 1.000000 1.000000 }
		}
		{
			id=270
			position={ 2096.000000 0.000000 2802.000000 }
			rotation={ -0.000000 -0.994054 -0.000000 -0.108884 }
			scale={ 1.000000 1.000000 1.000000 }
		}
		{
			id=271
			position={ 2104.000000 0.000000 2788.000000 }
			rotation={ -0.000000 -0.869613 -0.000000 -0.493734 }
			scale={ 1.000000 1.000000 1.000000 }
		}
		{
			id=272
			position={ 2121.000000 0.000000 2805.000000 }
			rotation={ -0.000000 -0.232508 -0.000000 -0.972594 }
			scale={ 1.000000 1.000000 1.000000 }
		}
		{
			id=273
			position={ 2112.000000 0.000000 2797.000000 }
			rotation={ -0.000000 -0.931366 -0.000000 -0.364084 }
			scale={ 1.000000 1.000000 1.000000 }
		}
		{
			id=274
			position={ 2133.000000 0.000000 2797.000000 }
			rotation={ -0.000000 -0.820715 -0.000000 0.571338 }
			scale={ 1.000000 1.000000 1.000000 }
		}
		{
			id=275
			position={ 2158.000000 0.000000 2785.000000 }
			rotation={ -0.000000 -0.266390 -0.000000 -0.963865 }
			scale={ 1.000000 1.000000 1.000000 }
		}
		{
			id=276
			position={ 2141.000000 0.000000 2789.000000 }
			rotation={ -0.000000 -0.988942 -0.000000 -0.148303 }
			scale={ 1.000000 1.000000 1.000000 }
		}
		{
			id=277
			position={ 2146.000000 0.000000 2778.000000 }
			rotation={ -0.000000 -0.810065 -0.000000 -0.586341 }
			scale={ 1.000000 1.000000 1.000000 }
		}
		{
			id=278
			position={ 2156.000000 0.000000 2768.000000 }
			rotation={ -0.000000 -0.418892 -0.000000 -0.908036 }
			scale={ 1.000000 1.000000 1.000000 }
		}
		{
			id=279
			position={ 2124.000000 0.000000 2771.000000 }
			rotation={ -0.000000 -0.998882 -0.000000 -0.047273 }
			scale={ 1.000000 1.000000 1.000000 }
		}
		{
			id=280
			position={ 2133.000000 0.000000 2776.000000 }
			rotation={ -0.000000 -0.609140 -0.000000 -0.793063 }
			scale={ 1.000000 1.000000 1.000000 }
		}
		{
			id=281
			position={ 2135.000000 0.000000 2760.000000 }
			rotation={ -0.000000 -0.989650 -0.000000 0.143505 }
			scale={ 1.000000 1.000000 1.000000 }
		}
		{
			id=282
			position={ 2114.000000 0.000000 2780.000000 }
			rotation={ -0.000000 -0.981437 -0.000000 -0.191785 }
			scale={ 1.000000 1.000000 1.000000 }
		}
		{
			id=283
			position={ 2118.000000 0.000000 2764.000000 }
			rotation={ -0.000000 -0.426579 -0.000000 0.904450 }
			scale={ 1.000000 1.000000 1.000000 }
		}
		{
			id=284
			position={ 2105.000000 0.000000 2767.000000 }
			rotation={ -0.000000 -0.666059 -0.000000 -0.745899 }
			scale={ 1.000000 1.000000 1.000000 }
		}
		{
			id=285
			position={ 2118.000000 0.000000 2753.000000 }
			rotation={ -0.000000 -0.931256 -0.000000 -0.364365 }
			scale={ 1.000000 1.000000 1.000000 }
		}
		{
			id=286
			position={ 2106.000000 0.000000 2752.000000 }
			rotation={ -0.000000 -0.883732 -0.000000 -0.467993 }
			scale={ 1.000000 1.000000 1.000000 }
		}
		{
			id=287
			position={ 2098.000000 0.000000 2757.000000 }
			rotation={ -0.000000 -0.622960 -0.000000 -0.782254 }
			scale={ 1.000000 1.000000 1.000000 }
		}
		{
			id=288
			position={ 2085.000000 0.000000 2779.000000 }
			rotation={ -0.000000 -0.166936 -0.000000 -0.985968 }
			scale={ 1.000000 1.000000 1.000000 }
		}
		{
			id=289
			position={ 2097.000000 0.000000 2774.000000 }
			rotation={ -0.000000 -0.547842 -0.000000 -0.836582 }
			scale={ 1.000000 1.000000 1.000000 }
		}
		{
			id=290
			position={ 2087.000000 0.000000 2765.000000 }
			rotation={ -0.000000 -0.255099 -0.000000 0.966915 }
			scale={ 1.000000 1.000000 1.000000 }
		}
		{
			id=291
			position={ 2074.000000 0.000000 2773.000000 }
			rotation={ -0.000000 -0.977561 -0.000000 -0.210653 }
			scale={ 1.000000 1.000000 1.000000 }
		}
		{
			id=292
			position={ 2053.000000 0.000000 2744.000000 }
			rotation={ -0.000000 -0.654757 -0.000000 -0.755839 }
			scale={ 1.000000 1.000000 1.000000 }
		}
		{
			id=293
			position={ 2049.000000 0.000000 2752.000000 }
			rotation={ -0.000000 -0.791338 -0.000000 -0.611378 }
			scale={ 1.000000 1.000000 1.000000 }
		}
		{
			id=294
			position={ 2066.000000 0.000000 2747.000000 }
			rotation={ -0.000000 -0.148211 -0.000000 -0.988956 }
			scale={ 1.000000 1.000000 1.000000 }
		}
		{
			id=295
			position={ 2064.000000 0.000000 2759.000000 }
			rotation={ -0.000000 -0.501449 -0.000000 0.865187 }
			scale={ 1.000000 1.000000 1.000000 }
		}
		{
			id=296
			position={ 2068.000000 0.000000 2767.000000 }
			rotation={ -0.000000 -0.996844 -0.000000 0.079382 }
			scale={ 1.000000 1.000000 1.000000 }
		}
		{
			id=297
			position={ 2083.000000 0.000000 2758.000000 }
			rotation={ -0.000000 -0.595673 -0.000000 0.803227 }
			scale={ 1.000000 1.000000 1.000000 }
		}
		{
			id=298
			position={ 2078.000000 0.000000 2749.000000 }
			rotation={ -0.000000 -0.886352 -0.000000 -0.463011 }
			scale={ 1.000000 1.000000 1.000000 }
		}
		{
			id=299
			position={ 2093.000000 0.000000 2745.000000 }
			rotation={ -0.000000 -0.972637 -0.000000 -0.232330 }
			scale={ 1.000000 1.000000 1.000000 }
		}
		{
			id=300
			position={ 2081.000000 0.000000 2739.000000 }
			rotation={ -0.000000 -0.131744 -0.000000 0.991284 }
			scale={ 1.000000 1.000000 1.000000 }
		}
		{
			id=301
			position={ 2092.000000 0.000000 2856.000000 }
			rotation={ -0.000000 -0.921173 -0.000000 0.389154 }
			scale={ 1.000000 1.000000 1.000000 }
		}
		{
			id=302
			position={ 2101.000000 0.000000 2850.000000 }
			rotation={ -0.000000 -0.816276 -0.000000 -0.577661 }
			scale={ 1.000000 1.000000 1.000000 }
		}
		{
			id=303
			position={ 2112.000000 0.000000 2863.000000 }
			rotation={ -0.000000 -0.949051 -0.000000 0.315121 }
			scale={ 1.000000 1.000000 1.000000 }
		}
		{
			id=304
			position={ 2087.000000 0.000000 2838.000000 }
			rotation={ -0.000000 -0.817376 -0.000000 0.576104 }
			scale={ 1.000000 1.000000 1.000000 }
		}
		{
			id=305
			position={ 2088.000000 0.000000 2820.000000 }
			rotation={ -0.000000 -0.163955 -0.000000 -0.986468 }
			scale={ 1.000000 1.000000 1.000000 }
		}
		{
			id=306
			position={ 2105.000000 0.000000 2815.000000 }
			rotation={ -0.000000 -0.824872 -0.000000 -0.565320 }
			scale={ 1.000000 1.000000 1.000000 }
		}
		{
			id=307
			position={ 2096.000000 0.000000 2830.000000 }
			rotation={ -0.000000 -0.692319 -0.000000 0.721592 }
			scale={ 1.000000 1.000000 1.000000 }
		}
		{
			id=308
			position={ 2119.000000 0.000000 2831.000000 }
			rotation={ -0.000000 -0.210280 -0.000000 0.977641 }
			scale={ 1.000000 1.000000 1.000000 }
		}
		{
			id=309
			position={ 2123.000000 0.000000 2818.000000 }
			rotation={ -0.000000 -0.616569 -0.000000 0.787301 }
			scale={ 1.000000 1.000000 1.000000 }
		}
		{
			id=310
			position={ 2109.000000 0.000000 2840.000000 }
			rotation={ -0.000000 -0.591038 -0.000000 0.806644 }
			scale={ 1.000000 1.000000 1.000000 }
		}
		{
			id=311
			position={ 2125.000000 0.000000 2855.000000 }
			rotation={ -0.000000 -0.649214 -0.000000 0.760606 }
			scale={ 1.000000 1.000000 1.000000 }
		}
		{
			id=312
			position={ 2128.000000 0.000000 2838.000000 }
			rotation={ -0.000000 -0.744852 -0.000000 -0.667229 }
			scale={ 1.000000 1.000000 1.000000 }
		}
		{
			id=313
			position={ 2129.000000 0.000000 2871.000000 }
			rotation={ -0.000000 -0.309976 -0.000000 -0.950744 }
			scale={ 1.000000 1.000000 1.000000 }
		}
		{
			id=314
			position={ 2123.000000 0.000000 2910.000000 }
			rotation={ -0.000000 -0.108373 -0.000000 0.994110 }
			scale={ 1.000000 1.000000 1.000000 }
		}
		{
			id=315
			position={ 2121.000000 0.000000 2887.000000 }
			rotation={ -0.000000 -0.999359 -0.000000 0.035802 }
			scale={ 1.000000 1.000000 1.000000 }
		}
		{
			id=316
			position={ 2135.000000 0.000000 2896.000000 }
			rotation={ -0.000000 -0.703226 -0.000000 0.710966 }
			scale={ 1.000000 1.000000 1.000000 }
		}
		{
			id=317
			position={ 2181.000000 0.000000 2905.000000 }
			rotation={ -0.000000 -0.192790 -0.000000 0.981240 }
			scale={ 1.000000 1.000000 1.000000 }
		}
		{
			id=318
			position={ 2191.000000 0.000000 2921.000000 }
			rotation={ -0.000000 -0.816442 -0.000000 -0.577428 }
			scale={ 1.000000 1.000000 1.000000 }
		}
		{
			id=319
			position={ 2201.000000 0.000000 2894.000000 }
			rotation={ -0.000000 -0.155951 -0.000000 0.987765 }
			scale={ 1.000000 1.000000 1.000000 }
		}
		{
			id=320
			position={ 2161.000000 0.000000 2915.000000 }
			rotation={ -0.000000 -0.999696 -0.000000 -0.024675 }
			scale={ 1.000000 1.000000 1.000000 }
		}
		{
			id=321
			position={ 2147.000000 0.000000 2921.000000 }
			rotation={ -0.000000 -0.007960 -0.000000 -0.999968 }
			scale={ 1.000000 1.000000 1.000000 }
		}
		{
			id=322
			position={ 2151.000000 0.000000 2894.000000 }
			rotation={ -0.000000 -0.001505 -0.000000 0.999999 }
			scale={ 1.000000 1.000000 1.000000 }
		}
		{
			id=323
			position={ 2152.000000 0.000000 2876.000000 }
			rotation={ -0.000000 -0.353312 -0.000000 0.935506 }
			scale={ 1.000000 1.000000 1.000000 }
		}
		{
			id=324
			position={ 2175.000000 0.000000 2884.000000 }
			rotation={ -0.000000 -0.530427 -0.000000 -0.847731 }
			scale={ 1.000000 1.000000 1.000000 }
		}
		{
			id=325
			position={ 2151.000000 0.000000 2858.000000 }
			rotation={ -0.000000 -0.255225 -0.000000 -0.966882 }
			scale={ 1.000000 1.000000 1.000000 }
		}
		{
			id=326
			position={ 2196.000000 0.000000 2859.000000 }
			rotation={ -0.000000 -0.334002 -0.000000 0.942572 }
			scale={ 1.000000 1.000000 1.000000 }
		}
		{
			id=327
			position={ 2186.000000 0.000000 2869.000000 }
			rotation={ -0.000000 -0.911495 -0.000000 0.411310 }
			scale={ 1.000000 1.000000 1.000000 }
		}
		{
			id=328
			position={ 2205.000000 0.000000 2876.000000 }
			rotation={ -0.000000 -0.700770 -0.000000 0.713387 }
			scale={ 1.000000 1.000000 1.000000 }
		}
		{
			id=329
			position={ 2214.000000 0.000000 2854.000000 }
			rotation={ -0.000000 -0.984540 -0.000000 -0.175162 }
			scale={ 1.000000 1.000000 1.000000 }
		}
		{
			id=330
			position={ 2212.000000 0.000000 2829.000000 }
			rotation={ -0.000000 -0.078982 -0.000000 -0.996876 }
			scale={ 1.000000 1.000000 1.000000 }
		}
		{
			id=331
			position={ 2214.000000 0.000000 2842.000000 }
			rotation={ -0.000000 -0.877311 -0.000000 0.479922 }
			scale={ 1.000000 1.000000 1.000000 }
		}
		{
			id=332
			position={ 2204.000000 0.000000 2819.000000 }
			rotation={ -0.000000 -0.095233 -0.000000 0.995455 }
			scale={ 1.000000 1.000000 1.000000 }
		}
		{
			id=333
			position={ 2193.000000 0.000000 2842.000000 }
			rotation={ -0.000000 -0.619115 -0.000000 0.785300 }
			scale={ 1.000000 1.000000 1.000000 }
		}
		{
			id=334
			position={ 2190.000000 0.000000 2825.000000 }
			rotation={ -0.000000 -0.955655 -0.000000 0.294490 }
			scale={ 1.000000 1.000000 1.000000 }
		}
		{
			id=335
			position={ 2175.000000 0.000000 2848.000000 }
			rotation={ -0.000000 -0.374456 -0.000000 0.927245 }
			scale={ 1.000000 1.000000 1.000000 }
		}
		{
			id=336
			position={ 2176.000000 0.000000 2827.000000 }
			rotation={ -0.000000 -0.968070 -0.000000 -0.250681 }
			scale={ 1.000000 1.000000 1.000000 }
		}
		{
			id=337
			position={ 2198.000000 0.000000 2804.000000 }
			rotation={ -0.000000 -0.935216 -0.000000 -0.354079 }
			scale={ 1.000000 1.000000 1.000000 }
		}
		{
			id=338
			position={ 2187.000000 0.000000 2800.000000 }
			rotation={ -0.000000 -0.671915 -0.000000 -0.740629 }
			scale={ 1.000000 1.000000 1.000000 }
		}
		{
			id=339
			position={ 2174.000000 0.000000 2772.000000 }
			rotation={ -0.000000 -0.492475 -0.000000 0.870327 }
			scale={ 1.000000 1.000000 1.000000 }
		}
		{
			id=340
			position={ 2185.000000 0.000000 2783.000000 }
			rotation={ -0.000000 -0.326335 -0.000000 0.945254 }
			scale={ 1.000000 1.000000 1.000000 }
		}
		{
			id=341
			position={ 2169.000000 0.000000 2797.000000 }
			rotation={ -0.000000 -0.991135 -0.000000 -0.132855 }
			scale={ 1.000000 1.000000 1.000000 }
		}
		{
			id=342
			position={ 2156.000000 0.000000 2842.000000 }
			rotation={ -0.000000 -0.700331 -0.000000 0.713818 }
			scale={ 1.000000 1.000000 1.000000 }
		}
		{
			id=343
			position={ 2157.000000 0.000000 2823.000000 }
			rotation={ -0.000000 -0.224171 -0.000000 -0.974550 }
			scale={ 1.000000 1.000000 1.000000 }
		}
		{
			id=344
			position={ 2140.000000 0.000000 2825.000000 }
			rotation={ -0.000000 -0.059483 -0.000000 0.998229 }
			scale={ 1.000000 1.000000 1.000000 }
		}
		{
			id=345
			position={ 2157.000000 0.000000 2809.000000 }
			rotation={ -0.000000 -0.993799 -0.000000 0.111190 }
			scale={ 1.000000 1.000000 1.000000 }
		}
		{
			id=346
			position={ 2028.000000 0.000000 2629.000000 }
			rotation={ -0.000000 -0.989768 -0.000000 0.142688 }
			scale={ 1.000000 1.000000 1.000000 }
		}
		{
			id=347
			position={ 2015.000000 0.000000 2625.000000 }
			rotation={ -0.000000 -0.028396 -0.000000 -0.999597 }
			scale={ 1.000000 1.000000 1.000000 }
		}
		{
			id=348
			position={ 2035.000000 0.000000 2619.000000 }
			rotation={ -0.000000 -0.117847 -0.000000 -0.993032 }
			scale={ 1.000000 1.000000 1.000000 }
		}
		{
			id=349
			position={ 2043.000000 0.000000 2633.000000 }
			rotation={ -0.000000 -0.994691 -0.000000 -0.102908 }
			scale={ 1.000000 1.000000 1.000000 }
		}
		{
			id=350
			position={ 2019.000000 0.000000 2641.000000 }
			rotation={ -0.000000 -0.787748 -0.000000 -0.615998 }
			scale={ 1.000000 1.000000 1.000000 }
		}
		{
			id=351
			position={ 2053.000000 0.000000 2636.000000 }
			rotation={ -0.000000 -0.540743 -0.000000 0.841188 }
			scale={ 1.000000 1.000000 1.000000 }
		}
		{
			id=352
			position={ 2049.000000 0.000000 2616.000000 }
			rotation={ -0.000000 -0.995443 -0.000000 0.095354 }
			scale={ 1.000000 1.000000 1.000000 }
		}
		{
			id=353
			position={ 2064.000000 0.000000 2633.000000 }
			rotation={ -0.000000 -0.356490 -0.000000 0.934299 }
			scale={ 1.000000 1.000000 1.000000 }
		}
		{
			id=354
			position={ 2047.000000 0.000000 2655.000000 }
			rotation={ -0.000000 -0.390080 -0.000000 -0.920781 }
			scale={ 1.000000 1.000000 1.000000 }
		}
		{
			id=355
			position={ 2037.000000 0.000000 2648.000000 }
			rotation={ -0.000000 -0.806600 -0.000000 0.591097 }
			scale={ 1.000000 1.000000 1.000000 }
		}
		{
			id=356
			position={ 2062.000000 0.000000 2650.000000 }
			rotation={ -0.000000 -0.998971 -0.000000 -0.045363 }
			scale={ 1.000000 1.000000 1.000000 }
		}
		{
			id=357
			position={ 2060.000000 0.000000 2665.000000 }
			rotation={ -0.000000 -0.978235 -0.000000 0.207501 }
			scale={ 1.000000 1.000000 1.000000 }
		}
		{
			id=358
			position={ 2032.000000 0.000000 2661.000000 }
			rotation={ -0.000000 -0.081677 -0.000000 0.996659 }
			scale={ 1.000000 1.000000 1.000000 }
		}
		{
			id=359
			position={ 2092.000000 0.000000 2656.000000 }
			rotation={ -0.000000 -0.879948 -0.000000 0.475069 }
			scale={ 1.000000 1.000000 1.000000 }
		}
		{
			id=360
			position={ 2076.000000 0.000000 2655.000000 }
			rotation={ -0.000000 -0.956163 -0.000000 -0.292835 }
			scale={ 1.000000 1.000000 1.000000 }
		}
		{
			id=361
			position={ 2080.000000 0.000000 2641.000000 }
			rotation={ -0.000000 -0.362067 -0.000000 0.932152 }
			scale={ 1.000000 1.000000 1.000000 }
		}
		{
			id=362
			position={ 2093.000000 0.000000 2667.000000 }
			rotation={ -0.000000 -0.820673 -0.000000 0.571398 }
			scale={ 1.000000 1.000000 1.000000 }
		}
		{
			id=363
			position={ 2065.000000 0.000000 2616.000000 }
			rotation={ -0.000000 -0.996409 -0.000000 -0.084667 }
			scale={ 1.000000 1.000000 1.000000 }
		}
		{
			id=364
			position={ 2088.000000 0.000000 2630.000000 }
			rotation={ -0.000000 -0.643430 -0.000000 -0.765505 }
			scale={ 1.000000 1.000000 1.000000 }
		}
		{
			id=365
			position={ 2107.000000 0.000000 2648.000000 }
			rotation={ -0.000000 -0.072278 -0.000000 -0.997385 }
			scale={ 1.000000 1.000000 1.000000 }
		}
		{
			id=366
			position={ 2079.000000 0.000000 2611.000000 }
			rotation={ -0.000000 -0.559110 -0.000000 0.829093 }
			scale={ 1.000000 1.000000 1.000000 }
		}
		{
			id=367
			position={ 2119.000000 0.000000 2659.000000 }
			rotation={ -0.000000 -0.712024 -0.000000 -0.702155 }
			scale={ 1.000000 1.000000 1.000000 }
		}
		{
			id=368
			position={ 2133.000000 0.000000 2662.000000 }
			rotation={ -0.000000 -0.531498 -0.000000 -0.847060 }
			scale={ 1.000000 1.000000 1.000000 }
		}
		{
			id=369
			position={ 2118.000000 0.000000 2638.000000 }
			rotation={ -0.000000 -0.639171 -0.000000 0.769064 }
			scale={ 1.000000 1.000000 1.000000 }
		}
		{
			id=370
			position={ 2101.000000 0.000000 2628.000000 }
			rotation={ -0.000000 -0.315425 -0.000000 0.948951 }
			scale={ 1.000000 1.000000 1.000000 }
		}
		{
			id=371
			position={ 2032.000000 0.000000 2606.000000 }
			rotation={ -0.000000 -0.743229 -0.000000 -0.669037 }
			scale={ 1.000000 1.000000 1.000000 }
		}
		{
			id=372
			position={ 2054.000000 0.000000 2600.000000 }
			rotation={ -0.000000 -0.200258 -0.000000 -0.979743 }
			scale={ 1.000000 1.000000 1.000000 }
		}
		{
			id=373
			position={ 2012.000000 0.000000 2604.000000 }
			rotation={ -0.000000 -0.988728 -0.000000 0.149726 }
			scale={ 1.000000 1.000000 1.000000 }
		}
		{
			id=374
			position={ 2036.000000 0.000000 2592.000000 }
			rotation={ -0.000000 -0.961040 -0.000000 0.276408 }
			scale={ 1.000000 1.000000 1.000000 }
		}
		{
			id=375
			position={ 2007.000000 0.000000 2648.000000 }
			rotation={ -0.000000 -0.129173 -0.000000 0.991622 }
			scale={ 1.000000 1.000000 1.000000 }
		}
		{
			id=376
			position={ 1996.000000 0.000000 2629.000000 }
			rotation={ -0.000000 -0.811811 -0.000000 0.583920 }
			scale={ 1.000000 1.000000 1.000000 }
		}
		{
			id=377
			position={ 2000.000000 0.000000 2610.000000 }
			rotation={ -0.000000 -0.960263 -0.000000 0.279098 }
			scale={ 1.000000 1.000000 1.000000 }
		}
		{
			id=378
			position={ 2008.000000 0.000000 2662.000000 }
			rotation={ -0.000000 -0.406170 -0.000000 0.913798 }
			scale={ 1.000000 1.000000 1.000000 }
		}
		{
			id=379
			position={ 2071.000000 0.000000 2692.000000 }
			rotation={ -0.000000 -0.404455 -0.000000 0.914558 }
			scale={ 1.000000 1.000000 1.000000 }
		}
		{
			id=380
			position={ 2050.000000 0.000000 2687.000000 }
			rotation={ -0.000000 -0.992936 -0.000000 0.118651 }
			scale={ 1.000000 1.000000 1.000000 }
		}
		{
			id=381
			position={ 2059.000000 0.000000 2677.000000 }
			rotation={ -0.000000 -0.762703 -0.000000 -0.646748 }
			scale={ 1.000000 1.000000 1.000000 }
		}
		{
			id=382
			position={ 2089.000000 0.000000 2690.000000 }
			rotation={ -0.000000 -0.981775 -0.000000 0.190048 }
			scale={ 1.000000 1.000000 1.000000 }
		}
		{
			id=383
			position={ 2084.000000 0.000000 2678.000000 }
			rotation={ -0.000000 -0.908056 -0.000000 -0.418848 }
			scale={ 1.000000 1.000000 1.000000 }
		}
		{
			id=384
			position={ 2121.000000 0.000000 2690.000000 }
			rotation={ -0.000000 -0.997068 -0.000000 -0.076516 }
			scale={ 1.000000 1.000000 1.000000 }
		}
		{
			id=385
			position={ 2106.000000 0.000000 2685.000000 }
			rotation={ -0.000000 -0.560604 -0.000000 -0.828084 }
			scale={ 1.000000 1.000000 1.000000 }
		}
		{
			id=386
			position={ 2115.000000 0.000000 2676.000000 }
			rotation={ -0.000000 -0.985546 -0.000000 -0.169411 }
			scale={ 1.000000 1.000000 1.000000 }
		}
		{
			id=387
			position={ 2140.000000 0.000000 2678.000000 }
			rotation={ -0.000000 -0.608268 -0.000000 -0.793732 }
			scale={ 1.000000 1.000000 1.000000 }
		}
		{
			id=388
			position={ 2158.000000 0.000000 2690.000000 }
			rotation={ -0.000000 -0.669804 -0.000000 -0.742538 }
			scale={ 1.000000 1.000000 1.000000 }
		}
		{
			id=389
			position={ 2166.000000 0.000000 2679.000000 }
			rotation={ -0.000000 -0.869889 -0.000000 0.493247 }
			scale={ 1.000000 1.000000 1.000000 }
		}
		{
			id=390
			position={ 2192.000000 0.000000 2694.000000 }
			rotation={ -0.000000 -0.935759 -0.000000 -0.352639 }
			scale={ 1.000000 1.000000 1.000000 }
		}
		{
			id=391
			position={ 2196.000000 0.000000 2677.000000 }
			rotation={ -0.000000 -0.876370 -0.000000 -0.481638 }
			scale={ 1.000000 1.000000 1.000000 }
		}
		{
			id=392
			position={ 2280.000000 0.000000 2685.000000 }
			rotation={ -0.000000 -0.862728 -0.000000 0.505668 }
			scale={ 1.000000 1.000000 1.000000 }
		}
		{
			id=393
			position={ 2282.000000 0.000000 2671.000000 }
			rotation={ -0.000000 -0.915822 -0.000000 0.401585 }
			scale={ 1.000000 1.000000 1.000000 }
		}
		{
			id=394
			position={ 2261.000000 0.000000 2672.000000 }
			rotation={ -0.000000 -0.639785 -0.000000 -0.768554 }
			scale={ 1.000000 1.000000 1.000000 }
		}
		{
			id=395
			position={ 2290.000000 0.000000 2658.000000 }
			rotation={ -0.000000 -0.138100 -0.000000 0.990418 }
			scale={ 1.000000 1.000000 1.000000 }
		}
		{
			id=396
			position={ 2228.000000 0.000000 2655.000000 }
			rotation={ -0.000000 -0.992677 -0.000000 0.120797 }
			scale={ 1.000000 1.000000 1.000000 }
		}
		{
			id=397
			position={ 2220.000000 0.000000 2667.000000 }
			rotation={ -0.000000 -0.939192 -0.000000 -0.343394 }
			scale={ 1.000000 1.000000 1.000000 }
		}
		{
			id=398
			position={ 2245.000000 0.000000 2664.000000 }
			rotation={ -0.000000 -0.484081 -0.000000 0.875023 }
			scale={ 1.000000 1.000000 1.000000 }
		}
		{
			id=399
			position={ 2259.000000 0.000000 2654.000000 }
			rotation={ -0.000000 -0.532166 -0.000000 0.846640 }
			scale={ 1.000000 1.000000 1.000000 }
		}
		{
			id=400
			position={ 2277.000000 0.000000 2651.000000 }
			rotation={ -0.000000 -0.983318 -0.000000 0.181895 }
			scale={ 1.000000 1.000000 1.000000 }
		}
		{
			id=401
			position={ 2321.000000 0.000000 2685.000000 }
			rotation={ -0.000000 -0.502961 -0.000000 0.864309 }
			scale={ 1.000000 1.000000 1.000000 }
		}
		{
			id=402
			position={ 2325.000000 0.000000 2669.000000 }
			rotation={ -0.000000 -0.570126 -0.000000 -0.821557 }
			scale={ 1.000000 1.000000 1.000000 }
		}
		{
			id=403
			position={ 2335.000000 0.000000 2678.000000 }
			rotation={ -0.000000 -0.468038 -0.000000 -0.883708 }
			scale={ 1.000000 1.000000 1.000000 }
		}
		{
			id=404
			position={ 2342.000000 0.000000 2668.000000 }
			rotation={ -0.000000 -0.637765 -0.000000 0.770231 }
			scale={ 1.000000 1.000000 1.000000 }
		}
		{
			id=405
			position={ 2338.000000 0.000000 2689.000000 }
			rotation={ -0.000000 -0.841248 -0.000000 -0.540650 }
			scale={ 1.000000 1.000000 1.000000 }
		}
		{
			id=406
			position={ 2329.000000 0.000000 2709.000000 }
			rotation={ -0.000000 -0.480224 -0.000000 0.877146 }
			scale={ 1.000000 1.000000 1.000000 }
		}
		{
			id=407
			position={ 2350.000000 0.000000 2709.000000 }
			rotation={ -0.000000 -0.792496 -0.000000 -0.609877 }
			scale={ 1.000000 1.000000 1.000000 }
		}
		{
			id=408
			position={ 2337.000000 0.000000 2700.000000 }
			rotation={ -0.000000 -0.863964 -0.000000 -0.503553 }
			scale={ 1.000000 1.000000 1.000000 }
		}
		{
			id=409
			position={ 2298.000000 0.000000 2695.000000 }
			rotation={ -0.000000 -0.659467 -0.000000 0.751734 }
			scale={ 1.000000 1.000000 1.000000 }
		}
		{
			id=410
			position={ 2313.000000 0.000000 2699.000000 }
			rotation={ -0.000000 -0.368688 -0.000000 -0.929553 }
			scale={ 1.000000 1.000000 1.000000 }
		}
		{
			id=411
			position={ 2304.000000 0.000000 2681.000000 }
			rotation={ -0.000000 -0.654887 -0.000000 -0.755727 }
			scale={ 1.000000 1.000000 1.000000 }
		}
		{
			id=412
			position={ 2308.000000 0.000000 2666.000000 }
			rotation={ -0.000000 -0.933190 -0.000000 -0.359384 }
			scale={ 1.000000 1.000000 1.000000 }
		}
		{
			id=413
			position={ 2325.000000 0.000000 2656.000000 }
			rotation={ -0.000000 -0.503539 -0.000000 0.863972 }
			scale={ 1.000000 1.000000 1.000000 }
		}
		{
			id=414
			position={ 2317.000000 0.000000 2648.000000 }
			rotation={ -0.000000 -0.993244 -0.000000 -0.116047 }
			scale={ 1.000000 1.000000 1.000000 }
		}
		{
			id=415
			position={ 2347.000000 0.000000 2657.000000 }
			rotation={ -0.000000 -0.215130 -0.000000 -0.976585 }
			scale={ 1.000000 1.000000 1.000000 }
		}
		{
			id=416
			position={ 2335.000000 0.000000 2645.000000 }
			rotation={ -0.000000 -0.503846 -0.000000 -0.863793 }
			scale={ 1.000000 1.000000 1.000000 }
		}
		{
			id=417
			position={ 2353.000000 0.000000 2642.000000 }
			rotation={ -0.000000 -0.757648 -0.000000 -0.652663 }
			scale={ 1.000000 1.000000 1.000000 }
		}
		{
			id=418
			position={ 2360.000000 0.000000 2696.000000 }
			rotation={ -0.000000 -0.749681 -0.000000 -0.661799 }
			scale={ 1.000000 1.000000 1.000000 }
		}
		{
			id=419
			position={ 2364.000000 0.000000 2681.000000 }
			rotation={ -0.000000 -0.612203 -0.000000 0.790700 }
			scale={ 1.000000 1.000000 1.000000 }
		}
		{
			id=420
			position={ 2359.000000 0.000000 2669.000000 }
			rotation={ -0.000000 -0.692665 -0.000000 -0.721260 }
			scale={ 1.000000 1.000000 1.000000 }
		}
		{
			id=421
			position={ 2289.000000 0.000000 2633.000000 }
			rotation={ -0.000000 -0.701467 -0.000000 -0.712702 }
			scale={ 1.000000 1.000000 1.000000 }
		}
		{
			id=422
			position={ 2293.000000 0.000000 2644.000000 }
			rotation={ -0.000000 -0.969429 -0.000000 -0.245373 }
			scale={ 1.000000 1.000000 1.000000 }
		}
		{
			id=423
			position={ 2310.000000 0.000000 2636.000000 }
			rotation={ -0.000000 -0.313778 -0.000000 -0.949496 }
			scale={ 1.000000 1.000000 1.000000 }
		}
		{
			id=424
			position={ 2273.000000 0.000000 2636.000000 }
			rotation={ -0.000000 -0.875315 -0.000000 0.483553 }
			scale={ 1.000000 1.000000 1.000000 }
		}
		{
			id=425
			position={ 2300.000000 0.000000 2624.000000 }
			rotation={ -0.000000 -0.651170 -0.000000 0.758932 }
			scale={ 1.000000 1.000000 1.000000 }
		}
		{
			id=426
			position={ 2284.000000 0.000000 2621.000000 }
			rotation={ -0.000000 -0.081452 -0.000000 0.996677 }
			scale={ 1.000000 1.000000 1.000000 }
		}
		{
			id=427
			position={ 2241.000000 0.000000 2632.000000 }
			rotation={ -0.000000 -0.661160 -0.000000 0.750245 }
			scale={ 1.000000 1.000000 1.000000 }
		}
		{
			id=428
			position={ 2259.000000 0.000000 2634.000000 }
			rotation={ -0.000000 -0.258495 -0.000000 0.966013 }
			scale={ 1.000000 1.000000 1.000000 }
		}
		{
			id=429
			position={ 2241.000000 0.000000 2645.000000 }
			rotation={ -0.000000 -0.982528 -0.000000 0.186113 }
			scale={ 1.000000 1.000000 1.000000 }
		}
		{
			id=430
			position={ 2272.000000 0.000000 2620.000000 }
			rotation={ -0.000000 -0.957190 -0.000000 0.289460 }
			scale={ 1.000000 1.000000 1.000000 }
		}
		{
			id=431
			position={ 2256.000000 0.000000 2620.000000 }
			rotation={ -0.000000 -0.995398 -0.000000 0.095832 }
			scale={ 1.000000 1.000000 1.000000 }
		}
		{
			id=432
			position={ 2244.000000 0.000000 2618.000000 }
			rotation={ -0.000000 -0.696340 -0.000000 0.717712 }
			scale={ 1.000000 1.000000 1.000000 }
		}
		{
			id=433
			position={ 2267.000000 0.000000 2610.000000 }
			rotation={ -0.000000 -0.830342 -0.000000 -0.557255 }
			scale={ 1.000000 1.000000 1.000000 }
		}
		{
			id=434
			position={ 2330.000000 0.000000 2628.000000 }
			rotation={ -0.000000 -0.985007 -0.000000 0.172517 }
			scale={ 1.000000 1.000000 1.000000 }
		}
		{
			id=435
			position={ 2314.000000 0.000000 2622.000000 }
			rotation={ -0.000000 -0.755501 -0.000000 0.655147 }
			scale={ 1.000000 1.000000 1.000000 }
		}
		{
			id=436
			position={ 2348.000000 0.000000 2628.000000 }
			rotation={ -0.000000 -0.135137 -0.000000 0.990827 }
			scale={ 1.000000 1.000000 1.000000 }
		}
		{
			id=437
			position={ 2333.000000 0.000000 2616.000000 }
			rotation={ -0.000000 -0.981278 -0.000000 0.192596 }
			scale={ 1.000000 1.000000 1.000000 }
		}
		{
			id=438
			position={ 2297.000000 0.000000 2599.000000 }
			rotation={ -0.000000 -0.570555 -0.000000 0.821259 }
			scale={ 1.000000 1.000000 1.000000 }
		}
		{
			id=439
			position={ 2289.000000 0.000000 2608.000000 }
			rotation={ -0.000000 -0.007053 -0.000000 -0.999975 }
			scale={ 1.000000 1.000000 1.000000 }
		}
		{
			id=440
			position={ 2316.000000 0.000000 2608.000000 }
			rotation={ -0.000000 -0.978845 -0.000000 0.204602 }
			scale={ 1.000000 1.000000 1.000000 }
		}
		{
			id=441
			position={ 2305.000000 0.000000 2582.000000 }
			rotation={ -0.000000 -0.997167 -0.000000 -0.075223 }
			scale={ 1.000000 1.000000 1.000000 }
		}
		{
			id=442
			position={ 2315.000000 0.000000 2595.000000 }
			rotation={ -0.000000 -0.817506 -0.000000 0.575919 }
			scale={ 1.000000 1.000000 1.000000 }
		}
		{
			id=443
			position={ 2287.000000 0.000000 2590.000000 }
			rotation={ -0.000000 -0.889278 -0.000000 0.457368 }
			scale={ 1.000000 1.000000 1.000000 }
		}
		{
			id=444
			position={ 2281.000000 0.000000 2575.000000 }
			rotation={ -0.000000 -0.958331 -0.000000 -0.285659 }
			scale={ 1.000000 1.000000 1.000000 }
		}
		{
			id=445
			position={ 2268.000000 0.000000 2597.000000 }
			rotation={ -0.000000 -0.398051 -0.000000 0.917363 }
			scale={ 1.000000 1.000000 1.000000 }
		}
		{
			id=446
			position={ 2249.000000 0.000000 2603.000000 }
			rotation={ -0.000000 -0.810307 -0.000000 0.586005 }
			scale={ 1.000000 1.000000 1.000000 }
		}
		{
			id=447
			position={ 2263.000000 0.000000 2584.000000 }
			rotation={ -0.000000 -0.970620 -0.000000 0.240618 }
			scale={ 1.000000 1.000000 1.000000 }
		}
		{
			id=448
			position={ 2165.000000 0.000000 2613.000000 }
			rotation={ -0.000000 -0.695549 -0.000000 -0.718478 }
			scale={ 1.000000 1.000000 1.000000 }
		}
		{
			id=449
			position={ 2164.000000 0.000000 2601.000000 }
			rotation={ -0.000000 -0.999564 -0.000000 -0.029532 }
			scale={ 1.000000 1.000000 1.000000 }
		}
		{
			id=450
			position={ 2187.000000 0.000000 2599.000000 }
			rotation={ -0.000000 -0.563524 -0.000000 0.826100 }
			scale={ 1.000000 1.000000 1.000000 }
		}
		{
			id=451
			position={ 2175.000000 0.000000 2625.000000 }
			rotation={ -0.000000 -0.887330 -0.000000 -0.461136 }
			scale={ 1.000000 1.000000 1.000000 }
		}
		{
			id=452
			position={ 2109.000000 0.000000 2614.000000 }
			rotation={ -0.000000 -0.201623 -0.000000 -0.979463 }
			scale={ 1.000000 1.000000 1.000000 }
		}
		{
			id=453
			position={ 2103.000000 0.000000 2604.000000 }
			rotation={ -0.000000 -0.536042 -0.000000 0.844191 }
			scale={ 1.000000 1.000000 1.000000 }
		}
		{
			id=454
			position={ 2135.000000 0.000000 2608.000000 }
			rotation={ -0.000000 -0.389799 -0.000000 0.920900 }
			scale={ 1.000000 1.000000 1.000000 }
		}
		{
			id=455
			position={ 2196.000000 0.000000 2656.000000 }
			rotation={ -0.000000 -0.985143 -0.000000 -0.171736 }
			scale={ 1.000000 1.000000 1.000000 }
		}
		{
			id=456
			position={ 2194.000000 0.000000 2638.000000 }
			rotation={ -0.000000 -0.206032 -0.000000 0.978545 }
			scale={ 1.000000 1.000000 1.000000 }
		}
		{
			id=457
			position={ 2214.000000 0.000000 2646.000000 }
			rotation={ -0.000000 -0.232087 -0.000000 0.972695 }
			scale={ 1.000000 1.000000 1.000000 }
		}
		{
			id=458
			position={ 2157.000000 0.000000 2635.000000 }
			rotation={ -0.000000 -0.360654 -0.000000 -0.932700 }
			scale={ 1.000000 1.000000 1.000000 }
		}
		{
			id=459
			position={ 2129.000000 0.000000 2626.000000 }
			rotation={ -0.000000 -0.255134 -0.000000 -0.966906 }
			scale={ 1.000000 1.000000 1.000000 }
		}
		{
			id=460
			position={ 2147.000000 0.000000 2623.000000 }
			rotation={ -0.000000 -0.617843 -0.000000 0.786301 }
			scale={ 1.000000 1.000000 1.000000 }
		}
		{
			id=461
			position={ 2174.000000 0.000000 2641.000000 }
			rotation={ -0.000000 -0.576419 -0.000000 -0.817154 }
			scale={ 1.000000 1.000000 1.000000 }
		}
		{
			id=462
			position={ 2180.000000 0.000000 2663.000000 }
			rotation={ -0.000000 -0.560066 -0.000000 0.828448 }
			scale={ 1.000000 1.000000 1.000000 }
		}
		{
			id=463
			position={ 2173.000000 0.000000 2652.000000 }
			rotation={ -0.000000 -0.465618 -0.000000 0.884986 }
			scale={ 1.000000 1.000000 1.000000 }
		}
		{
			id=464
			position={ 2157.000000 0.000000 2659.000000 }
			rotation={ -0.000000 -0.778283 -0.000000 -0.627914 }
			scale={ 1.000000 1.000000 1.000000 }
		}
		{
			id=465
			position={ 2141.000000 0.000000 2646.000000 }
			rotation={ -0.000000 -0.131663 -0.000000 0.991295 }
			scale={ 1.000000 1.000000 1.000000 }
		}
		{
			id=466
			position={ 2198.000000 0.000000 2609.000000 }
			rotation={ -0.000000 -0.917447 -0.000000 0.397858 }
			scale={ 1.000000 1.000000 1.000000 }
		}
		{
			id=467
			position={ 2202.000000 0.000000 2625.000000 }
			rotation={ -0.000000 -0.313788 -0.000000 -0.949493 }
			scale={ 1.000000 1.000000 1.000000 }
		}
		{
			id=468
			position={ 2226.000000 0.000000 2619.000000 }
			rotation={ -0.000000 -0.509538 -0.000000 -0.860448 }
			scale={ 1.000000 1.000000 1.000000 }
		}
		{
			id=469
			position={ 1939.000000 0.000000 2699.000000 }
			rotation={ -0.000000 -0.985604 -0.000000 0.169068 }
			scale={ 1.000000 1.000000 1.000000 }
		}
		{
			id=470
			position={ 1927.000000 0.000000 2674.000000 }
			rotation={ -0.000000 -0.997382 -0.000000 0.072316 }
			scale={ 1.000000 1.000000 1.000000 }
		}
		{
			id=471
			position={ 1966.000000 0.000000 2702.000000 }
			rotation={ -0.000000 -0.943625 -0.000000 0.331016 }
			scale={ 1.000000 1.000000 1.000000 }
		}
		{
			id=472
			position={ 1950.000000 0.000000 2686.000000 }
			rotation={ -0.000000 -0.635003 -0.000000 0.772510 }
			scale={ 1.000000 1.000000 1.000000 }
		}
		{
			id=473
			position={ 1970.000000 0.000000 2685.000000 }
			rotation={ -0.000000 -0.679940 -0.000000 0.733268 }
			scale={ 1.000000 1.000000 1.000000 }
		}
		{
			id=474
			position={ 1987.000000 0.000000 2700.000000 }
			rotation={ -0.000000 -0.808494 -0.000000 -0.588505 }
			scale={ 1.000000 1.000000 1.000000 }
		}
		{
			id=475
			position={ 2008.000000 0.000000 2698.000000 }
			rotation={ -0.000000 -0.080456 -0.000000 -0.996758 }
			scale={ 1.000000 1.000000 1.000000 }
		}
		{
			id=476
			position={ 2032.000000 0.000000 2691.000000 }
			rotation={ -0.000000 -0.931539 -0.000000 0.363641 }
			scale={ 1.000000 1.000000 1.000000 }
		}
		{
			id=477
			position={ 2025.000000 0.000000 2678.000000 }
			rotation={ -0.000000 -0.230173 -0.000000 0.973150 }
			scale={ 1.000000 1.000000 1.000000 }
		}
		{
			id=478
			position={ 1998.000000 0.000000 2679.000000 }
			rotation={ -0.000000 -0.616158 -0.000000 0.787623 }
			scale={ 1.000000 1.000000 1.000000 }
		}
		{
			id=479
			position={ 1961.000000 0.000000 2653.000000 }
			rotation={ -0.000000 -0.908894 -0.000000 -0.417028 }
			scale={ 1.000000 1.000000 1.000000 }
		}
		{
			id=480
			position={ 1951.000000 0.000000 2669.000000 }
			rotation={ -0.000000 -0.999997 -0.000000 0.002341 }
			scale={ 1.000000 1.000000 1.000000 }
		}
		{
			id=481
			position={ 1985.000000 0.000000 2648.000000 }
			rotation={ -0.000000 -0.626872 -0.000000 -0.779122 }
			scale={ 1.000000 1.000000 1.000000 }
		}
		{
			id=482
			position={ 1977.000000 0.000000 2668.000000 }
			rotation={ -0.000000 -0.326033 -0.000000 -0.945359 }
			scale={ 1.000000 1.000000 1.000000 }
		}
		{
			id=483
			position={ 1936.000000 0.000000 2653.000000 }
			rotation={ -0.000000 -0.918904 -0.000000 0.394482 }
			scale={ 1.000000 1.000000 1.000000 }
		}
		{
			id=484
			position={ 1919.000000 0.000000 2647.000000 }
			rotation={ -0.000000 -0.961297 -0.000000 0.275516 }
			scale={ 1.000000 1.000000 1.000000 }
		}
		{
			id=485
			position={ 1918.000000 0.000000 2625.000000 }
			rotation={ -0.000000 -0.971350 -0.000000 0.237653 }
			scale={ 1.000000 1.000000 1.000000 }
		}
		{
			id=486
			position={ 1930.000000 0.000000 2621.000000 }
			rotation={ -0.000000 -0.052388 -0.000000 -0.998627 }
			scale={ 1.000000 1.000000 1.000000 }
		}
		{
			id=487
			position={ 1914.000000 0.000000 2600.000000 }
			rotation={ -0.000000 -0.966923 -0.000000 0.255070 }
			scale={ 1.000000 1.000000 1.000000 }
		}
		{
			id=488
			position={ 1914.000000 0.000000 2582.000000 }
			rotation={ -0.000000 -0.287843 -0.000000 0.957678 }
			scale={ 1.000000 1.000000 1.000000 }
		}
		{
			id=489
			position={ 1929.000000 0.000000 2584.000000 }
			rotation={ -0.000000 -0.994838 -0.000000 -0.101480 }
			scale={ 1.000000 1.000000 1.000000 }
		}
		{
			id=490
			position={ 1933.000000 0.000000 2602.000000 }
			rotation={ -0.000000 -0.081119 -0.000000 -0.996704 }
			scale={ 1.000000 1.000000 1.000000 }
		}
		{
			id=491
			position={ 1958.000000 0.000000 2620.000000 }
			rotation={ -0.000000 -0.975239 -0.000000 -0.221155 }
			scale={ 1.000000 1.000000 1.000000 }
		}
		{
			id=492
			position={ 1944.000000 0.000000 2623.000000 }
			rotation={ -0.000000 -0.698612 -0.000000 -0.715501 }
			scale={ 1.000000 1.000000 1.000000 }
		}
		{
			id=493
			position={ 1969.000000 0.000000 2637.000000 }
			rotation={ -0.000000 -0.484920 -0.000000 -0.874559 }
			scale={ 1.000000 1.000000 1.000000 }
		}
		{
			id=494
			position={ 1978.000000 0.000000 2577.000000 }
			rotation={ -0.000000 -0.486250 -0.000000 -0.873820 }
			scale={ 1.000000 1.000000 1.000000 }
		}
		{
			id=495
			position={ 1993.000000 0.000000 2571.000000 }
			rotation={ -0.000000 -0.894015 -0.000000 -0.448036 }
			scale={ 1.000000 1.000000 1.000000 }
		}
		{
			id=496
			position={ 1990.000000 0.000000 2594.000000 }
			rotation={ -0.000000 -0.131505 -0.000000 0.991316 }
			scale={ 1.000000 1.000000 1.000000 }
		}
		{
			id=497
			position={ 1968.000000 0.000000 2565.000000 }
			rotation={ -0.000000 -0.614383 -0.000000 -0.789008 }
			scale={ 1.000000 1.000000 1.000000 }
		}
		{
			id=498
			position={ 1970.000000 0.000000 2591.000000 }
			rotation={ -0.000000 -0.781970 -0.000000 0.623316 }
			scale={ 1.000000 1.000000 1.000000 }
		}
		{
			id=499
			position={ 1957.000000 0.000000 2601.000000 }
			rotation={ -0.000000 -0.741585 -0.000000 0.670859 }
			scale={ 1.000000 1.000000 1.000000 }
		}
		{
			id=500
			position={ 1980.000000 0.000000 2616.000000 }
			rotation={ -0.000000 -0.527504 -0.000000 -0.849552 }
			scale={ 1.000000 1.000000 1.000000 }
		}
		{
			id=501
			position={ 1950.000000 0.000000 2587.000000 }
			rotation={ -0.000000 -0.998750 -0.000000 -0.049992 }
			scale={ 1.000000 1.000000 1.000000 }
		}
		{
			id=502
			position={ 1921.000000 0.000000 2561.000000 }
			rotation={ -0.000000 -0.266601 -0.000000 0.963807 }
			scale={ 1.000000 1.000000 1.000000 }
		}
		{
			id=503
			position={ 1944.000000 0.000000 2570.000000 }
			rotation={ -0.000000 -0.399393 -0.000000 0.916780 }
			scale={ 1.000000 1.000000 1.000000 }
		}
		{
			id=504
			position={ 1946.000000 0.000000 2546.000000 }
			rotation={ -0.000000 -0.787783 -0.000000 -0.615953 }
			scale={ 1.000000 1.000000 1.000000 }
		}
		{
			id=505
			position={ 1960.000000 0.000000 2554.000000 }
			rotation={ -0.000000 -0.915576 -0.000000 0.402145 }
			scale={ 1.000000 1.000000 1.000000 }
		}
		{
			id=506
			position={ 1968.000000 0.000000 2533.000000 }
			rotation={ -0.000000 -0.979389 -0.000000 0.201983 }
			scale={ 1.000000 1.000000 1.000000 }
		}
		{
			id=507
			position={ 1987.000000 0.000000 2531.000000 }
			rotation={ -0.000000 -0.292375 -0.000000 -0.956304 }
			scale={ 1.000000 1.000000 1.000000 }
		}
		{
			id=508
			position={ 1982.000000 0.000000 2550.000000 }
			rotation={ -0.000000 -0.609681 -0.000000 0.792647 }
			scale={ 1.000000 1.000000 1.000000 }
		}
		{
			id=509
			position={ 2007.000000 0.000000 2532.000000 }
			rotation={ -0.000000 -0.065554 -0.000000 -0.997849 }
			scale={ 1.000000 1.000000 1.000000 }
		}
		{
			id=510
			position={ 2003.000000 0.000000 2553.000000 }
			rotation={ -0.000000 -0.968133 -0.000000 0.250436 }
			scale={ 1.000000 1.000000 1.000000 }
		}
		{
			id=511
			position={ 2009.000000 0.000000 2572.000000 }
			rotation={ -0.000000 -0.934193 -0.000000 0.356767 }
			scale={ 1.000000 1.000000 1.000000 }
		}
		{
			id=512
			position={ 2014.000000 0.000000 2588.000000 }
			rotation={ -0.000000 -0.952048 -0.000000 0.305950 }
			scale={ 1.000000 1.000000 1.000000 }
		}
		{
			id=513
			position={ 2032.000000 0.000000 2578.000000 }
			rotation={ -0.000000 -0.989075 -0.000000 0.147416 }
			scale={ 1.000000 1.000000 1.000000 }
		}
		{
			id=514
			position={ 2078.000000 0.000000 2524.000000 }
			rotation={ -0.000000 -0.631231 -0.000000 -0.775595 }
			scale={ 1.000000 1.000000 1.000000 }
		}
		{
			id=515
			position={ 2102.000000 0.000000 2527.000000 }
			rotation={ -0.000000 -0.025850 -0.000000 -0.999666 }
			scale={ 1.000000 1.000000 1.000000 }
		}
		{
			id=516
			position={ 2074.000000 0.000000 2507.000000 }
			rotation={ -0.000000 -0.539676 -0.000000 0.841873 }
			scale={ 1.000000 1.000000 1.000000 }
		}
		{
			id=517
			position={ 2105.000000 0.000000 2507.000000 }
			rotation={ -0.000000 -0.849261 -0.000000 -0.527973 }
			scale={ 1.000000 1.000000 1.000000 }
		}
		{
			id=518
			position={ 2031.000000 0.000000 2522.000000 }
			rotation={ -0.000000 -0.719300 -0.000000 -0.694699 }
			scale={ 1.000000 1.000000 1.000000 }
		}
		{
			id=519
			position={ 2053.000000 0.000000 2518.000000 }
			rotation={ -0.000000 -0.246404 -0.000000 0.969167 }
			scale={ 1.000000 1.000000 1.000000 }
		}
		{
			id=520
			position={ 2054.000000 0.000000 2531.000000 }
			rotation={ -0.000000 -0.216675 -0.000000 0.976244 }
			scale={ 1.000000 1.000000 1.000000 }
		}
		{
			id=521
			position={ 2027.000000 0.000000 2536.000000 }
			rotation={ -0.000000 -0.008038 -0.000000 -0.999968 }
			scale={ 1.000000 1.000000 1.000000 }
		}
		{
			id=522
			position={ 2032.000000 0.000000 2561.000000 }
			rotation={ -0.000000 -0.966289 -0.000000 0.257459 }
			scale={ 1.000000 1.000000 1.000000 }
		}
		{
			id=523
			position={ 2017.000000 0.000000 2553.000000 }
			rotation={ -0.000000 -0.489998 -0.000000 -0.871724 }
			scale={ 1.000000 1.000000 1.000000 }
		}
		{
			id=524
			position={ 2046.000000 0.000000 2545.000000 }
			rotation={ -0.000000 -0.150464 -0.000000 0.988615 }
			scale={ 1.000000 1.000000 1.000000 }
		}
		{
			id=525
			position={ 2142.000000 0.000000 2522.000000 }
			rotation={ -0.000000 -0.599932 -0.000000 0.800051 }
			scale={ 1.000000 1.000000 1.000000 }
		}
		{
			id=526
			position={ 2125.000000 0.000000 2515.000000 }
			rotation={ -0.000000 -0.047152 -0.000000 -0.998888 }
			scale={ 1.000000 1.000000 1.000000 }
		}
		{
			id=527
			position={ 2121.000000 0.000000 2532.000000 }
			rotation={ -0.000000 -0.314495 -0.000000 0.949259 }
			scale={ 1.000000 1.000000 1.000000 }
		}
		{
			id=528
			position={ 2142.000000 0.000000 2538.000000 }
			rotation={ -0.000000 -0.899499 -0.000000 0.436922 }
			scale={ 1.000000 1.000000 1.000000 }
		}
		{
			id=529
			position={ 2197.000000 0.000000 2538.000000 }
			rotation={ -0.000000 -0.724644 -0.000000 0.689123 }
			scale={ 1.000000 1.000000 1.000000 }
		}
		{
			id=530
			position={ 2203.000000 0.000000 2526.000000 }
			rotation={ -0.000000 -0.227909 -0.000000 0.973682 }
			scale={ 1.000000 1.000000 1.000000 }
		}
		{
			id=531
			position={ 2181.000000 0.000000 2527.000000 }
			rotation={ -0.000000 -0.209267 -0.000000 0.977859 }
			scale={ 1.000000 1.000000 1.000000 }
		}
		{
			id=532
			position={ 2163.000000 0.000000 2526.000000 }
			rotation={ -0.000000 -0.582176 -0.000000 0.813063 }
			scale={ 1.000000 1.000000 1.000000 }
		}
		{
			id=533
			position={ 2223.000000 0.000000 2531.000000 }
			rotation={ -0.000000 -0.305613 -0.000000 -0.952156 }
			scale={ 1.000000 1.000000 1.000000 }
		}
		{
			id=534
			position={ 2260.000000 0.000000 2542.000000 }
			rotation={ -0.000000 -0.913611 -0.000000 -0.406590 }
			scale={ 1.000000 1.000000 1.000000 }
		}
		{
			id=535
			position={ 2265.000000 0.000000 2565.000000 }
			rotation={ -0.000000 -0.835022 -0.000000 0.550217 }
			scale={ 1.000000 1.000000 1.000000 }
		}
		{
			id=536
			position={ 2238.000000 0.000000 2535.000000 }
			rotation={ -0.000000 -0.991208 -0.000000 0.132312 }
			scale={ 1.000000 1.000000 1.000000 }
		}
		{
			id=537
			position={ 2249.000000 0.000000 2554.000000 }
			rotation={ -0.000000 -0.618700 -0.000000 -0.785627 }
			scale={ 1.000000 1.000000 1.000000 }
		}
		{
			id=538
			position={ 2218.000000 0.000000 2555.000000 }
			rotation={ -0.000000 -0.353540 -0.000000 -0.935419 }
			scale={ 1.000000 1.000000 1.000000 }
		}
		{
			id=539
			position={ 2211.000000 0.000000 2545.000000 }
			rotation={ -0.000000 -0.345523 -0.000000 0.938410 }
			scale={ 1.000000 1.000000 1.000000 }
		}
		{
			id=540
			position={ 2234.000000 0.000000 2554.000000 }
			rotation={ -0.000000 -0.999020 -0.000000 0.044266 }
			scale={ 1.000000 1.000000 1.000000 }
		}
		{
			id=541
			position={ 2193.000000 0.000000 2554.000000 }
			rotation={ -0.000000 -0.413975 -0.000000 -0.910288 }
			scale={ 1.000000 1.000000 1.000000 }
		}
		{
			id=542
			position={ 2245.000000 0.000000 2574.000000 }
			rotation={ -0.000000 -0.254271 -0.000000 0.967133 }
			scale={ 1.000000 1.000000 1.000000 }
		}
		{
			id=543
			position={ 2238.000000 0.000000 2593.000000 }
			rotation={ -0.000000 -0.736128 -0.000000 -0.676843 }
			scale={ 1.000000 1.000000 1.000000 }
		}
		{
			id=544
			position={ 2222.000000 0.000000 2597.000000 }
			rotation={ -0.000000 -0.990705 -0.000000 0.136028 }
			scale={ 1.000000 1.000000 1.000000 }
		}
		{
			id=545
			position={ 2223.000000 0.000000 2573.000000 }
			rotation={ -0.000000 -0.240633 -0.000000 0.970616 }
			scale={ 1.000000 1.000000 1.000000 }
		}
		{
			id=546
			position={ 2208.000000 0.000000 2588.000000 }
			rotation={ -0.000000 -0.401209 -0.000000 -0.915986 }
			scale={ 1.000000 1.000000 1.000000 }
		}
		{
			id=547
			position={ 2194.000000 0.000000 2580.000000 }
			rotation={ -0.000000 -0.242906 -0.000000 -0.970050 }
			scale={ 1.000000 1.000000 1.000000 }
		}
		{
			id=548
			position={ 2203.000000 0.000000 2569.000000 }
			rotation={ -0.000000 -0.241392 -0.000000 -0.970428 }
			scale={ 1.000000 1.000000 1.000000 }
		}
		{
			id=549
			position={ 2181.000000 0.000000 2565.000000 }
			rotation={ -0.000000 -0.979499 -0.000000 0.201451 }
			scale={ 1.000000 1.000000 1.000000 }
		}
		{
			id=550
			position={ 2169.000000 0.000000 2554.000000 }
			rotation={ -0.000000 -0.994742 -0.000000 0.102414 }
			scale={ 1.000000 1.000000 1.000000 }
		}
		{
			id=551
			position={ 2171.000000 0.000000 2543.000000 }
			rotation={ -0.000000 -0.988423 -0.000000 0.151723 }
			scale={ 1.000000 1.000000 1.000000 }
		}
		{
			id=552
			position={ 2150.000000 0.000000 2555.000000 }
			rotation={ -0.000000 -0.978601 -0.000000 -0.205769 }
			scale={ 1.000000 1.000000 1.000000 }
		}
		{
			id=553
			position={ 2069.000000 0.000000 2583.000000 }
			rotation={ -0.000000 -0.689912 -0.000000 0.723893 }
			scale={ 1.000000 1.000000 1.000000 }
		}
		{
			id=554
			position={ 2066.000000 0.000000 2595.000000 }
			rotation={ -0.000000 -0.644570 -0.000000 -0.764546 }
			scale={ 1.000000 1.000000 1.000000 }
		}
		{
			id=555
			position={ 2051.000000 0.000000 2580.000000 }
			rotation={ -0.000000 -0.565782 -0.000000 -0.824555 }
			scale={ 1.000000 1.000000 1.000000 }
		}
		{
			id=556
			position={ 2056.000000 0.000000 2571.000000 }
			rotation={ -0.000000 -0.970467 -0.000000 -0.241235 }
			scale={ 1.000000 1.000000 1.000000 }
		}
		{
			id=557
			position={ 2085.000000 0.000000 2596.000000 }
			rotation={ -0.000000 -0.155624 -0.000000 0.987816 }
			scale={ 1.000000 1.000000 1.000000 }
		}
		{
			id=558
			position={ 2073.000000 0.000000 2553.000000 }
			rotation={ -0.000000 -0.000818 -0.000000 1.000000 }
			scale={ 1.000000 1.000000 1.000000 }
		}
		{
			id=559
			position={ 2063.000000 0.000000 2563.000000 }
			rotation={ -0.000000 -0.998644 -0.000000 -0.052052 }
			scale={ 1.000000 1.000000 1.000000 }
		}
		{
			id=560
			position={ 2069.000000 0.000000 2542.000000 }
			rotation={ -0.000000 -0.105444 -0.000000 -0.994425 }
			scale={ 1.000000 1.000000 1.000000 }
		}
		{
			id=561
			position={ 2081.000000 0.000000 2569.000000 }
			rotation={ -0.000000 -0.381911 -0.000000 -0.924199 }
			scale={ 1.000000 1.000000 1.000000 }
		}
		{
			id=562
			position={ 2101.000000 0.000000 2545.000000 }
			rotation={ -0.000000 -0.995503 -0.000000 0.094734 }
			scale={ 1.000000 1.000000 1.000000 }
		}
		{
			id=563
			position={ 2086.000000 0.000000 2540.000000 }
			rotation={ -0.000000 -0.570922 -0.000000 0.821005 }
			scale={ 1.000000 1.000000 1.000000 }
		}
		{
			id=564
			position={ 2119.000000 0.000000 2546.000000 }
			rotation={ -0.000000 -0.902629 -0.000000 -0.430419 }
			scale={ 1.000000 1.000000 1.000000 }
		}
		{
			id=565
			position={ 2091.000000 0.000000 2556.000000 }
			rotation={ -0.000000 -0.553311 -0.000000 -0.832975 }
			scale={ 1.000000 1.000000 1.000000 }
		}
		{
			id=566
			position={ 2133.000000 0.000000 2554.000000 }
			rotation={ -0.000000 -0.405011 -0.000000 -0.914312 }
			scale={ 1.000000 1.000000 1.000000 }
		}
		{
			id=567
			position={ 2087.000000 0.000000 2584.000000 }
			rotation={ -0.000000 -0.956687 -0.000000 0.291117 }
			scale={ 1.000000 1.000000 1.000000 }
		}
		{
			id=568
			position={ 2096.000000 0.000000 2570.000000 }
			rotation={ -0.000000 -0.316117 -0.000000 0.948720 }
			scale={ 1.000000 1.000000 1.000000 }
		}
		{
			id=569
			position={ 2101.000000 0.000000 2586.000000 }
			rotation={ -0.000000 -0.577268 -0.000000 0.816555 }
			scale={ 1.000000 1.000000 1.000000 }
		}
		{
			id=570
			position={ 2112.000000 0.000000 2558.000000 }
			rotation={ -0.000000 -0.749634 -0.000000 -0.661852 }
			scale={ 1.000000 1.000000 1.000000 }
		}
		{
			id=571
			position={ 2120.000000 0.000000 2567.000000 }
			rotation={ -0.000000 -0.853317 -0.000000 -0.521393 }
			scale={ 1.000000 1.000000 1.000000 }
		}
		{
			id=572
			position={ 2110.000000 0.000000 2577.000000 }
			rotation={ -0.000000 -0.929320 -0.000000 0.369276 }
			scale={ 1.000000 1.000000 1.000000 }
		}
		{
			id=573
			position={ 2148.000000 0.000000 2595.000000 }
			rotation={ -0.000000 -0.874731 -0.000000 -0.484608 }
			scale={ 1.000000 1.000000 1.000000 }
		}
		{
			id=574
			position={ 2132.000000 0.000000 2593.000000 }
			rotation={ -0.000000 -0.989062 -0.000000 -0.147503 }
			scale={ 1.000000 1.000000 1.000000 }
		}
		{
			id=575
			position={ 2119.000000 0.000000 2589.000000 }
			rotation={ -0.000000 -0.853382 -0.000000 -0.521286 }
			scale={ 1.000000 1.000000 1.000000 }
		}
		{
			id=576
			position={ 2129.000000 0.000000 2580.000000 }
			rotation={ -0.000000 -0.146870 -0.000000 -0.989156 }
			scale={ 1.000000 1.000000 1.000000 }
		}
		{
			id=577
			position={ 2150.000000 0.000000 2570.000000 }
			rotation={ -0.000000 -0.994314 -0.000000 -0.106486 }
			scale={ 1.000000 1.000000 1.000000 }
		}
		{
			id=578
			position={ 2140.000000 0.000000 2577.000000 }
			rotation={ -0.000000 -0.966647 -0.000000 -0.256114 }
			scale={ 1.000000 1.000000 1.000000 }
		}
		{
			id=579
			position={ 2163.000000 0.000000 2575.000000 }
			rotation={ -0.000000 -0.272992 -0.000000 -0.962016 }
			scale={ 1.000000 1.000000 1.000000 }
		}
		{
			id=580
			position={ 2177.000000 0.000000 2587.000000 }
			rotation={ -0.000000 -0.905691 -0.000000 0.423938 }
			scale={ 1.000000 1.000000 1.000000 }
		}
		{
			id=581
			position={ 2166.000000 0.000000 2585.000000 }
			rotation={ -0.000000 -0.070059 -0.000000 0.997543 }
			scale={ 1.000000 1.000000 1.000000 }
		}
	}
}
